[gd_scene load_steps=9 format=2]

[ext_resource path="res://Scripts/Nodes/UI/BindingTextReplacer.gd" type="Script" id=1]
[ext_resource path="res://Scenes/LevelScoreManager.tscn" type="PackedScene" id=2]
[ext_resource path="res://Scripts/Nodes/VisualEffects/Pseudo3DManager.gd" type="Script" id=3]
[ext_resource path="res://Fonts/TutorialFont.tres" type="DynamicFont" id=4]
[ext_resource path="res://Scenes/Entities/Goal.tscn" type="PackedScene" id=5]
[ext_resource path="res://Scenes/Entities/Obstacles/Sawblades/LargeSawblade.tscn" type="PackedScene" id=6]
[ext_resource path="res://Tilesets/Ground.tres" type="TileSet" id=7]
[ext_resource path="res://Scenes/Entities/Obstacles/Sawblades/MediumSawblade.tscn" type="PackedScene" id=10]

[node name="Level1" type="Node2D"]
__meta__ = {
"_edit_lock_": true
}

[node name="Pseudo3DManager" type="Node" parent="."]
script = ExtResource( 3 )

[node name="LevelScoreManager" parent="." instance=ExtResource( 2 )]

[node name="CanvasLayer" type="CanvasLayer" parent="."]
follow_viewport_enable = true

[node name="Ground" type="TileMap" parent="CanvasLayer"]
tile_set = ExtResource( 7 )
cell_size = Vector2( 32, 32 )
cell_quadrant_size = 32
collision_mask = 524288
format = 1
tile_data = PoolIntArray( -524219, 1, 0, -524218, 1, 0, -524217, 1, 0, -524216, 1, 0, -524215, 1, 0, -524214, 1, 0, -524213, 1, 0, -524212, 1, 0, -524211, 1, 0, -524210, 1, 0, -524209, 1, 0, -524208, 1, 0, -524207, 1, 0, -524206, 1, 0, -524205, 1, 0, -524204, 1, 0, -524203, 1, 0, -524202, 1, 0, -524201, 1, 0, -524200, 1, 0, -458683, 1, 0, -458682, 1073741824, 0, -458681, 1073741824, 0, -458680, 1073741824, 0, -458679, 1073741824, 0, -458678, 1073741824, 0, -458677, 1073741824, 0, -458676, 1073741824, 0, -458675, 1073741824, 0, -458674, 1073741824, 0, -458673, 1073741824, 0, -458672, 1073741824, 0, -458671, 1073741824, 0, -458670, 1073741824, 0, -458669, 1073741824, 0, -458668, 1073741824, 0, -458667, 1073741824, 0, -458666, 1073741824, 0, -458665, 1073741824, 0, -458664, 1073741824, 0, -393147, 1, 0, -393146, 1073741824, 0, -393145, 1073741824, 0, -393144, 1073741824, 0, -393143, 1073741824, 0, -393142, 1073741824, 0, -393141, 1073741824, 0, -393140, 1073741824, 0, -393139, 1073741824, 0, -393138, 1073741824, 0, -393137, 1073741824, 0, -393136, 1073741824, 0, -393135, 1073741824, 0, -393134, 1073741824, 0, -393133, 1073741824, 0, -393132, 1073741824, 0, -393131, 1073741824, 0, -393130, 1073741824, 0, -393129, 1073741824, 0, -393128, 1073741824, 0, -327611, 1, 0, -327610, 1073741824, 0, -327609, 1073741824, 0, -327608, 1073741824, 0, -327607, 1073741824, 0, -327606, 1073741824, 0, -327605, 1073741824, 0, -327604, 1073741824, 0, -327603, 1073741824, 0, -327602, 1073741824, 0, -327601, 1073741824, 0, -327600, 1073741824, 0, -327599, 1073741824, 0, -327598, 1073741824, 0, -327597, 1073741824, 0, -327596, 1073741824, 0, -327595, 1073741824, 0, -327594, 1073741824, 0, -327593, 1073741824, 0, -327592, 1073741824, 0, -262075, 1, 0, -262074, 1073741824, 0, -262073, 1073741824, 0, -262072, 1073741824, 0, -262071, 1073741824, 0, -262070, 1073741824, 0, -262069, 1073741824, 0, -262068, 1073741824, 0, -262067, 1073741824, 0, -262066, 1073741824, 0, -262065, 1073741824, 0, -262064, 1073741824, 0, -262063, 1073741824, 0, -262062, 1073741824, 0, -262061, 1073741824, 0, -262060, 1073741824, 0, -262059, 1073741824, 0, -262058, 1073741824, 0, -262057, 1073741824, 0, -262056, 1073741824, 0, -196539, 1, 0, -196538, 1073741824, 0, -196537, 1073741824, 0, -196536, 1073741824, 0, -196535, 1073741824, 0, -196534, 1073741824, 0, -196533, 1073741824, 0, -196532, 1073741824, 0, -196531, 1073741824, 0, -196530, 1073741824, 0, -196529, 1073741824, 0, -196528, 1073741824, 0, -196527, 1073741824, 0, -196526, 1073741824, 0, -196525, 1073741824, 0, -196524, 1073741824, 0, -196523, 1073741824, 0, -196522, 1073741824, 0, -196521, 1073741824, 0, -196520, 1073741824, 0, -131022, 1, 0, -131021, 1, 0, -131020, 1, 0, -131019, 1, 0, -131018, 1, 0, -131017, 1, 0, -131016, 1, 0, -131015, 1, 0, -131014, 1, 0, -131013, 1, 0, -131012, 1, 0, -131003, 1, 0, -131002, 1073741824, 0, -131001, 1073741824, 0, -131000, 1073741824, 0, -130999, 1073741824, 0, -130998, 1073741824, 0, -130997, 1073741824, 0, -130996, 1073741824, 0, -130995, 1073741824, 0, -130994, 1073741824, 0, -130993, 1073741824, 0, -130992, 1073741824, 0, -130991, 1073741824, 0, -130990, 1073741824, 0, -130989, 1073741824, 0, -130988, 1073741824, 0, -130987, 1073741824, 0, -130986, 1073741824, 0, -130985, 1073741824, 0, -130984, 1073741824, 0, -65486, 1, 0, -65485, 0, 0, -65484, 0, 0, -65483, 0, 0, -65482, 0, 0, -65481, 0, 0, -65480, 0, 0, -65479, 0, 0, -65478, 0, 0, -65477, 0, 0, -65476, 1, 0, -65467, 1, 0, -65466, 1073741824, 0, -65465, 1073741824, 0, -65464, 1073741824, 0, -65463, 1073741824, 0, -65462, 1073741824, 0, -65461, 1073741824, 0, -65460, 1073741824, 0, -65459, 1073741824, 0, -65458, 1073741824, 0, -65457, 1073741824, 0, -65456, 1073741824, 0, -65455, 1073741824, 0, -65454, 1073741824, 0, -65453, 1073741824, 0, -65452, 1073741824, 0, -65451, 1073741824, 0, -65450, 1073741824, 0, -65449, 1073741824, 0, -65448, 1073741824, 0, 50, 1, 0, 51, 1, 0, 52, 1, 0, 53, 1, 0, 54, 1, 0, 55, 1, 0, 56, 1, 0, 57, 1, 0, 58, 1, 0, 59, 1, 0, 60, 1, 0, 69, 1, 0, 70, 1073741824, 0, 71, 1073741824, 0, 72, 1073741824, 0, 73, 1073741824, 0, 74, 1073741824, 0, 75, 1073741824, 0, 76, 1073741824, 0, 77, 1073741824, 0, 78, 1073741824, 0, 79, 1073741824, 0, 80, 1073741824, 0, 81, 1073741824, 0, 82, 1073741824, 0, 83, 1073741824, 0, 84, 1073741824, 0, 85, 1073741824, 0, 86, 1073741824, 0, 87, 1073741824, 0, 88, 1073741824, 0, 65605, 1, 0, 65606, 1073741824, 0, 65607, 1073741824, 0, 65608, 1073741824, 0, 65609, 1073741824, 0, 65610, 1073741824, 0, 65611, 1073741824, 0, 65612, 1073741824, 0, 65613, 1073741824, 0, 65614, 1073741824, 0, 65615, 1073741824, 0, 65616, 1073741824, 0, 65617, 1073741824, 0, 65618, 1073741824, 0, 65619, 1073741824, 0, 65620, 1073741824, 0, 65621, 1073741824, 0, 65622, 1073741824, 0, 65623, 1073741824, 0, 65624, 1073741824, 0, 131141, 1, 0, 131142, 1073741824, 0, 131143, 1073741824, 0, 131144, 1073741824, 0, 131145, 1073741824, 0, 131146, 1073741824, 0, 131147, 1073741824, 0, 131148, 1073741824, 0, 131149, 1073741824, 0, 131150, 1073741824, 0, 131151, 1073741824, 0, 131152, 1073741824, 0, 131153, 1073741824, 0, 131154, 1073741824, 0, 131155, 1073741824, 0, 131156, 1073741824, 0, 131157, 1073741824, 0, 131158, 1073741824, 0, 131159, 1073741824, 0, 131160, 1073741824, 0, 196677, 1, 0, 196678, 1073741824, 0, 196679, 1073741824, 0, 196680, 1073741824, 0, 196681, 1073741824, 0, 196682, 1073741824, 0, 196683, 1073741824, 0, 196684, 1073741824, 0, 196685, 1073741824, 0, 196686, 1073741824, 0, 196687, 1073741824, 0, 196688, 1073741824, 0, 196689, 1073741824, 0, 196690, 1073741824, 0, 196691, 1073741824, 0, 196692, 1073741824, 0, 196693, 1073741824, 0, 196694, 1073741824, 0, 196695, 1073741824, 0, 196696, 1073741824, 0, 262213, 1, 0, 262214, 1073741824, 0, 262215, 1073741824, 0, 262216, 1073741824, 0, 262217, 1073741824, 0, 262218, 1073741824, 0, 262219, 1073741824, 0, 262220, 1073741824, 0, 262221, 1073741824, 0, 262222, 1073741824, 0, 262223, 1073741824, 0, 262224, 1073741824, 0, 262225, 1073741824, 0, 262226, 1073741824, 0, 262227, 1073741824, 0, 262228, 1073741824, 0, 262229, 1073741824, 0, 262230, 1073741824, 0, 262231, 1073741824, 0, 262232, 1073741824, 0, 327749, 1, 0, 327750, 1073741824, 0, 327751, 1073741824, 0, 327752, 1073741824, 0, 327753, 1073741824, 0, 327754, 1073741824, 0, 327755, 1073741824, 0, 327756, 1073741824, 0, 327757, 1073741824, 0, 327758, 1073741824, 0, 327759, 1073741824, 0, 327760, 1073741824, 0, 327761, 1073741824, 0, 327762, 1073741824, 0, 327763, 1073741824, 0, 327764, 1073741824, 0, 327765, 1073741824, 0, 327766, 1073741824, 0, 327767, 1073741824, 0, 327768, 1073741824, 0, 393285, 1, 0, 393286, 1073741824, 0, 393287, 1073741824, 0, 393288, 1073741824, 0, 393289, 1073741824, 0, 393290, 1073741824, 0, 393291, 1073741824, 0, 393292, 1073741824, 0, 393293, 1073741824, 0, 393294, 1073741824, 0, 393295, 1073741824, 0, 393296, 1073741824, 0, 393297, 1073741824, 0, 393298, 1073741824, 0, 393299, 1073741824, 0, 393300, 1073741824, 0, 393301, 1073741824, 0, 393302, 1073741824, 0, 393303, 1073741824, 0, 393304, 1073741824, 0, 458803, 1, 0, 458804, 1, 0, 458805, 1, 0, 458815, 1, 0, 458816, 1, 0, 458817, 1, 0, 458818, 1, 0, 458819, 1, 0, 458820, 1, 0, 458821, 1, 0, 458822, 1073741824, 0, 458823, 1073741824, 0, 458824, 1073741824, 0, 458825, 1073741824, 0, 458826, 1073741824, 0, 458827, 1073741824, 0, 458828, 1073741824, 0, 458829, 1073741824, 0, 458830, 1073741824, 0, 458831, 1073741824, 0, 458832, 1073741824, 0, 458833, 1073741824, 0, 458834, 1073741824, 0, 458835, 1073741824, 0, 458836, 1073741824, 0, 458837, 1073741824, 0, 458838, 1073741824, 0, 458839, 1073741824, 0, 458840, 1073741824, 0, 524339, 1, 0, 524340, 0, 0, 524341, 1, 0, 524351, 1, 0, 524352, 1073741824, 0, 524353, 1073741824, 0, 524354, 1073741824, 0, 524355, 1073741824, 0, 524356, 1073741824, 0, 524357, 1073741824, 0, 524358, 1073741824, 0, 524359, 1073741824, 0, 524360, 1073741824, 0, 524361, 1073741824, 0, 524362, 1073741824, 0, 524363, 1073741824, 0, 524364, 1073741824, 0, 524365, 1073741824, 0, 524366, 1073741824, 0, 524367, 1073741824, 0, 524368, 1073741824, 0, 524369, 1073741824, 0, 524370, 1073741824, 0, 524371, 1073741824, 0, 524372, 1073741824, 0, 524373, 1073741824, 0, 524374, 1073741824, 0, 524375, 1073741824, 0, 524376, 1073741824, 0, 589875, 1, 0, 589876, 0, 0, 589877, 1, 0, 589887, 1, 0, 589888, 1073741824, 0, 589889, 1073741824, 0, 589890, 1073741824, 0, 589891, 1073741824, 0, 589892, 1073741824, 0, 589893, 1073741824, 0, 589894, 1073741824, 0, 589895, 1073741824, 0, 589896, 1073741824, 0, 589897, 1073741824, 0, 589898, 1073741824, 0, 589899, 1073741824, 0, 589900, 1073741824, 0, 589901, 1073741824, 0, 589902, 1073741824, 0, 589903, 1073741824, 0, 589904, 1073741824, 0, 589905, 1073741824, 0, 589906, 1073741824, 0, 589907, 1073741824, 0, 589908, 1073741824, 0, 589909, 1073741824, 0, 589910, 1073741824, 0, 589911, 1073741824, 0, 589912, 1073741824, 0, 655394, 1, 0, 655395, 1, 0, 655396, 1, 0, 655397, 1, 0, 655398, 1, 0, 655399, 1, 0, 655400, 1, 0, 655401, 1, 0, 655402, 1, 0, 655403, 1, 0, 655404, 1, 0, 655405, 1, 0, 655411, 1, 0, 655412, 0, 0, 655413, 1, 0, 655423, 1, 0, 655424, 1073741824, 0, 655425, 1073741824, 0, 655426, 1073741824, 0, 655427, 1073741824, 0, 655428, 1073741824, 0, 655429, 1073741824, 0, 655430, 1073741824, 0, 655431, 1073741824, 0, 655432, 1073741824, 0, 655433, 1073741824, 0, 655434, 1073741824, 0, 655435, 1073741824, 0, 655436, 1073741824, 0, 655437, 1073741824, 0, 655438, 1073741824, 0, 655439, 1073741824, 0, 655440, 1073741824, 0, 655441, 1073741824, 0, 655442, 1073741824, 0, 655443, 1073741824, 0, 655444, 1073741824, 0, 655445, 1073741824, 0, 655446, 1073741824, 0, 655447, 1073741824, 0, 655448, 1073741824, 0, 720930, 1, 0, 720931, 0, 0, 720932, 0, 0, 720933, 0, 0, 720934, 0, 0, 720935, 0, 0, 720936, 0, 0, 720937, 0, 0, 720938, 0, 0, 720939, 0, 0, 720940, 0, 0, 720941, 1, 0, 720947, 1, 0, 720948, 0, 0, 720949, 1, 0, 720959, 1, 0, 720960, 1073741824, 0, 720961, 1073741824, 0, 720962, 1073741824, 0, 720963, 1073741824, 0, 720964, 1073741824, 0, 720965, 1073741824, 0, 720966, 1073741824, 0, 720967, 1073741824, 0, 720968, 1073741824, 0, 720969, 1073741824, 0, 720970, 1073741824, 0, 720971, 1073741824, 0, 720972, 1073741824, 0, 720973, 1073741824, 0, 720974, 1073741824, 0, 720975, 1073741824, 0, 720976, 1073741824, 0, 720977, 1073741824, 0, 720978, 1073741824, 0, 720979, 1073741824, 0, 720980, 1073741824, 0, 720981, 1073741824, 0, 720982, 1073741824, 0, 720983, 1073741824, 0, 720984, 1073741824, 0, 786466, 1, 0, 786467, 0, 0, 786468, 0, 0, 786469, 0, 0, 786470, 0, 0, 786471, 0, 0, 786472, 0, 0, 786473, 0, 0, 786474, 0, 0, 786475, 0, 0, 786476, 0, 0, 786477, 1, 0, 786478, 1, 0, 786479, 1, 0, 786480, 1, 0, 786481, 1, 0, 786482, 1, 0, 786483, 1, 0, 786484, 0, 0, 786485, 1, 0, 786495, 1, 0, 786496, 1073741824, 0, 786497, 1073741824, 0, 786498, 1073741824, 0, 786499, 1073741824, 0, 786500, 1073741824, 0, 786501, 1073741824, 0, 786502, 1073741824, 0, 786503, 1073741824, 0, 786504, 1073741824, 0, 786505, 1073741824, 0, 786506, 1073741824, 0, 786507, 1073741824, 0, 786508, 1073741824, 0, 786509, 1073741824, 0, 786510, 1073741824, 0, 786511, 1073741824, 0, 786512, 1073741824, 0, 786513, 1073741824, 0, 786514, 1073741824, 0, 786515, 1073741824, 0, 786516, 1073741824, 0, 786517, 1073741824, 0, 786518, 1073741824, 0, 786519, 1073741824, 0, 786520, 1073741824, 0, 917473, 1, 0, 917474, 1, 0, 917475, 1, 0, 917476, 1, 0, 917477, 1, 0, 917478, 1, 0, 917479, 1, 0, 917480, 1, 0, 917481, 1, 0, 917482, 1, 0, 917483, 1, 0, 917484, 1, 0, 917485, 1, 0, 917486, 1, 0, 917487, 1, 0, 917488, 1, 0, 917489, 1, 0, 917490, 1, 0, 917491, 1, 0, 917492, 1, 0, 917493, 1, 0, 917494, 1, 0, 917495, 1, 0, 917496, 1, 0, 917497, 1, 0, 917498, 1, 0, 917499, 1, 0, 917500, 1, 0, 917501, 1, 0, 917502, 1, 0, 917503, 1, 0, 851968, 1, 0, 851969, 1, 0, 851970, 1, 0, 851971, 1, 0, 851972, 1, 0, 851973, 1, 0, 851974, 1, 0, 851975, 1, 0, 851976, 1, 0, 851977, 1, 0, 851978, 1, 0, 851979, 1, 0, 851980, 1, 0, 851981, 1, 0, 851982, 1, 0, 851983, 1, 0, 851984, 1, 0, 851985, 1, 0, 851986, 1, 0, 851987, 1, 0, 851988, 1, 0, 851989, 1, 0, 851990, 1, 0, 851991, 1, 0, 851992, 1, 0, 851993, 1, 0, 851994, 1, 0, 851995, 1, 0, 851996, 1, 0, 851997, 1, 0, 851998, 1, 0, 851999, 1, 0, 852000, 1, 0, 852001, 1, 0, 852002, 1, 0, 852003, 0, 0, 852004, 0, 0, 852005, 0, 0, 852006, 0, 0, 852007, 0, 0, 852008, 0, 0, 852009, 0, 0, 852010, 0, 0, 852011, 0, 0, 852012, 0, 0, 852013, 0, 0, 852014, 0, 0, 852015, 0, 0, 852016, 0, 0, 852017, 0, 0, 852018, 0, 0, 852019, 0, 0, 852020, 0, 0, 852021, 1, 0, 852022, 1, 0, 852023, 1, 0, 852024, 1, 0, 852025, 1, 0, 852026, 1, 0, 852027, 1, 0, 852028, 1, 0, 852029, 1, 0, 852030, 1, 0, 852031, 1, 0, 852032, 1073741824, 0, 852033, 1073741824, 0, 852034, 1073741824, 0, 852035, 1073741824, 0, 852036, 1073741824, 0, 852037, 1073741824, 0, 852038, 1073741824, 0, 852039, 1073741824, 0, 852040, 1073741824, 0, 852041, 1073741824, 0, 852042, 1073741824, 0, 852043, 1073741824, 0, 852044, 1073741824, 0, 852045, 1073741824, 0, 852046, 1073741824, 0, 852047, 1073741824, 0, 852048, 1073741824, 0, 852049, 1073741824, 0, 852050, 1073741824, 0, 852051, 1073741824, 0, 852052, 1073741824, 0, 852053, 1073741824, 0, 852054, 1073741824, 0, 852055, 1073741824, 0, 852056, 1073741824, 0, 983009, 0, 0, 983010, 0, 0, 983011, 0, 0, 983012, 0, 0, 983013, 0, 0, 983014, 0, 0, 983015, 0, 0, 983016, 0, 0, 983017, 0, 0, 983018, 0, 0, 983019, 0, 0, 983020, 0, 0, 983021, 0, 0, 983022, 0, 0, 983023, 0, 0, 983024, 0, 0, 983025, 0, 0, 983026, 0, 0, 983027, 0, 0, 983028, 0, 0, 983029, 0, 0, 983030, 0, 0, 983031, 0, 0, 983032, 0, 0, 983033, 0, 0, 983034, 0, 0, 983035, 0, 0, 983036, 0, 0, 983037, 0, 0, 983038, 0, 0, 983039, 0, 0, 917504, 0, 0, 917505, 0, 0, 917506, 0, 0, 917507, 0, 0, 917508, 0, 0, 917509, 0, 0, 917510, 0, 0, 917511, 0, 0, 917512, 0, 0, 917513, 0, 0, 917514, 0, 0, 917515, 0, 0, 917516, 0, 0, 917517, 0, 0, 917518, 0, 0, 917519, 0, 0, 917520, 0, 0, 917521, 0, 0, 917522, 0, 0, 917523, 0, 0, 917524, 0, 0, 917525, 0, 0, 917526, 0, 0, 917527, 0, 0, 917528, 0, 0, 917529, 0, 0, 917530, 0, 0, 917531, 0, 0, 917532, 0, 0, 917533, 0, 0, 917534, 0, 0, 917535, 0, 0, 917536, 0, 0, 917537, 0, 0, 917538, 0, 0, 917539, 0, 0, 917540, 0, 0, 917541, 0, 0, 917542, 1073741824, 0, 917543, 1073741824, 0, 917544, 1073741824, 0, 917545, 1073741824, 0, 917546, 1073741824, 0, 917547, 1073741824, 0, 917548, 1073741824, 0, 917549, 0, 0, 917550, 0, 0, 917551, 0, 0, 917552, 0, 0, 917553, 0, 0, 917554, 0, 0, 917555, 0, 0, 917556, 0, 0, 917557, 0, 0, 917558, 1073741824, 0, 917559, 1073741824, 0, 917560, 1073741824, 0, 917561, 1073741824, 0, 917562, 1073741824, 0, 917563, 1073741824, 0, 917564, 1073741824, 0, 917565, 1073741824, 0, 917566, 1073741824, 0, 917567, 1073741824, 0, 917568, 1073741824, 0, 917569, 1073741824, 0, 917570, 1073741824, 0, 917571, 1073741824, 0, 917572, 1073741824, 0, 917573, 1073741824, 0, 917574, 1073741824, 0, 917575, 1073741824, 0, 917576, 1073741824, 0, 917577, 1073741824, 0, 917578, 1073741824, 0, 917579, 1073741824, 0, 917580, 1073741824, 0, 917581, 1073741824, 0, 917582, 1073741824, 0, 917583, 1073741824, 0, 917584, 1073741824, 0, 917585, 1073741824, 0, 917586, 1073741824, 0, 917587, 1073741824, 0, 917588, 1073741824, 0, 917589, 1073741824, 0, 917590, 1073741824, 0, 917591, 1073741824, 0, 917592, 1073741824, 0, 1048545, 1073741824, 0, 1048546, 1073741824, 0, 1048547, 1073741824, 0, 1048548, 1073741824, 0, 1048549, 1073741824, 0, 1048550, 1073741824, 0, 1048551, 1073741824, 0, 1048552, 1073741824, 0, 1048553, 1073741824, 0, 1048554, 1073741824, 0, 1048555, 1073741824, 0, 1048556, 1073741824, 0, 1048557, 1073741824, 0, 1048558, 1073741824, 0, 1048559, 1073741824, 0, 1048560, 1073741824, 0, 1048561, 1073741824, 0, 1048562, 1073741824, 0, 1048563, 1073741824, 0, 1048564, 1073741824, 0, 1048565, 1073741824, 0, 1048566, 1073741824, 0, 1048567, 1073741824, 0, 1048568, 1073741824, 0, 1048569, 1073741824, 0, 1048570, 1073741824, 0, 1048571, 1073741824, 0, 1048572, 1073741824, 0, 1048573, 1073741824, 0, 1048574, 1073741824, 0, 1048575, 1073741824, 0, 983040, 1073741824, 0, 983041, 1073741824, 0, 983042, 1073741824, 0, 983043, 1073741824, 0, 983044, 1073741824, 0, 983045, 1073741824, 0, 983046, 1073741824, 0, 983047, 1073741824, 0, 983048, 1073741824, 0, 983049, 1073741824, 0, 983050, 1073741824, 0, 983051, 1073741824, 0, 983052, 1073741824, 0, 983053, 1073741824, 0, 983054, 1073741824, 0, 983055, 1073741824, 0, 983056, 1073741824, 0, 983057, 1073741824, 0, 983058, 1073741824, 0, 983059, 1073741824, 0, 983060, 1073741824, 0, 983061, 1073741824, 0, 983062, 1073741824, 0, 983063, 1073741824, 0, 983064, 1073741824, 0, 983065, 1073741824, 0, 983066, 1073741824, 0, 983067, 1073741824, 0, 983068, 1073741824, 0, 983069, 1073741824, 0, 983070, 1073741824, 0, 983071, 1073741824, 0, 983072, 1073741824, 0, 983073, 1073741824, 0, 983074, 1073741824, 0, 983075, 1073741824, 0, 983076, 1073741824, 0, 983077, 1073741824, 0, 983078, 1073741824, 0, 983079, 1073741824, 0, 983080, 1073741824, 0, 983081, 1073741824, 0, 983082, 1073741824, 0, 983083, 1073741824, 0, 983084, 1073741824, 0, 983085, 1073741824, 0, 983086, 1073741824, 0, 983087, 1073741824, 0, 983088, 1073741824, 0, 983089, 1073741824, 0, 983090, 1073741824, 0, 983091, 1073741824, 0, 983092, 1073741824, 0, 983093, 1073741824, 0, 983094, 1073741824, 0, 983095, 1073741824, 0, 983096, 1073741824, 0, 983097, 1073741824, 0, 983098, 1073741824, 0, 983099, 1073741824, 0, 983100, 1073741824, 0, 983101, 1073741824, 0, 983102, 1073741824, 0, 983103, 1073741824, 0, 983104, 1073741824, 0, 983105, 1073741824, 0, 983106, 1073741824, 0, 983107, 1073741824, 0, 983108, 1073741824, 0, 983109, 1073741824, 0, 983110, 1073741824, 0, 983111, 1073741824, 0, 983112, 1073741824, 0, 983113, 1073741824, 0, 983114, 1073741824, 0, 983115, 1073741824, 0, 983116, 1073741824, 0, 983117, 1073741824, 0, 983118, 1073741824, 0, 983119, 1073741824, 0, 983120, 1073741824, 0, 983121, 1073741824, 0, 983122, 1073741824, 0, 983123, 1073741824, 0, 983124, 1073741824, 0, 983125, 1073741824, 0, 983126, 1073741824, 0, 983127, 1073741824, 0, 983128, 1073741824, 0, 1114081, 1073741824, 0, 1114082, 1073741824, 0, 1114083, 1073741824, 0, 1114084, 1073741824, 0, 1114085, 1073741824, 0, 1114086, 1073741824, 0, 1114087, 1073741824, 0, 1114088, 1073741824, 0, 1114089, 1073741824, 0, 1114090, 1073741824, 0, 1114091, 1073741824, 0, 1114092, 1073741824, 0, 1114093, 1073741824, 0, 1114094, 1073741824, 0, 1114095, 1073741824, 0, 1114096, 1073741824, 0, 1114097, 1073741824, 0, 1114098, 1073741824, 0, 1114099, 1073741824, 0, 1114100, 1073741824, 0, 1114101, 1073741824, 0, 1114102, 1073741824, 0, 1114103, 1073741824, 0, 1114104, 1073741824, 0, 1114105, 1073741824, 0, 1114106, 1073741824, 0, 1114107, 1073741824, 0, 1114108, 1073741824, 0, 1114109, 1073741824, 0, 1114110, 1073741824, 0, 1114111, 1073741824, 0, 1048576, 1073741824, 0, 1048577, 1073741824, 0, 1048578, 1073741824, 0, 1048579, 1073741824, 0, 1048580, 1073741824, 0, 1048581, 1073741824, 0, 1048582, 1073741824, 0, 1048583, 1073741824, 0, 1048584, 1073741824, 0, 1048585, 1073741824, 0, 1048586, 1073741824, 0, 1048587, 1073741824, 0, 1048588, 1073741824, 0, 1048589, 1073741824, 0, 1048590, 1073741824, 0, 1048591, 1073741824, 0, 1048592, 1073741824, 0, 1048593, 1073741824, 0, 1048594, 1073741824, 0, 1048595, 1073741824, 0, 1048596, 1073741824, 0, 1048597, 1073741824, 0, 1048598, 1073741824, 0, 1048599, 1073741824, 0, 1048600, 1073741824, 0, 1048601, 1073741824, 0, 1048602, 1073741824, 0, 1048603, 1073741824, 0, 1048604, 1073741824, 0, 1048605, 1073741824, 0, 1048606, 1073741824, 0, 1048607, 1073741824, 0, 1048608, 1073741824, 0, 1048609, 1073741824, 0, 1048610, 1073741824, 0, 1048611, 1073741824, 0, 1048612, 1073741824, 0, 1048613, 1073741824, 0, 1048614, 1073741824, 0, 1048615, 1073741824, 0, 1048616, 1073741824, 0, 1048617, 1073741824, 0, 1048618, 1073741824, 0, 1048619, 1073741824, 0, 1048620, 1073741824, 0, 1048621, 1073741824, 0, 1048622, 1073741824, 0, 1048623, 1073741824, 0, 1048624, 1073741824, 0, 1048625, 1073741824, 0, 1048626, 1073741824, 0, 1048627, 1073741824, 0, 1048628, 1073741824, 0, 1048629, 1073741824, 0, 1048630, 1073741824, 0, 1048631, 1073741824, 0, 1048632, 1073741824, 0, 1048633, 1073741824, 0, 1048634, 1073741824, 0, 1048635, 1073741824, 0, 1048636, 1073741824, 0, 1048637, 1073741824, 0, 1048638, 1073741824, 0, 1048639, 1073741824, 0, 1048640, 1073741824, 0, 1048641, 1073741824, 0, 1048642, 1073741824, 0, 1048643, 1073741824, 0, 1048644, 1073741824, 0, 1048645, 1073741824, 0, 1048646, 1073741824, 0, 1048647, 1073741824, 0, 1048648, 1073741824, 0, 1048649, 1073741824, 0, 1048650, 1073741824, 0, 1048651, 1073741824, 0, 1048652, 1073741824, 0, 1048653, 1073741824, 0, 1048654, 1073741824, 0, 1048655, 1073741824, 0, 1048656, 1073741824, 0, 1048657, 1073741824, 0, 1048658, 1073741824, 0, 1048659, 1073741824, 0, 1048660, 1073741824, 0, 1048661, 1073741824, 0, 1048662, 1073741824, 0, 1048663, 1073741824, 0, 1048664, 1073741824, 0, 1179617, 1073741824, 0, 1179618, 1073741824, 0, 1179619, 1073741824, 0, 1179620, 1073741824, 0, 1179621, 1073741824, 0, 1179622, 1073741824, 0, 1179623, 1073741824, 0, 1179624, 1073741824, 0, 1179625, 1073741824, 0, 1179626, 1073741824, 0, 1179627, 1073741824, 0, 1179628, 1073741824, 0, 1179629, 1073741824, 0, 1179630, 1073741824, 0, 1179631, 1073741824, 0, 1179632, 1073741824, 0, 1179633, 1073741824, 0, 1179634, 1073741824, 0, 1179635, 1073741824, 0, 1179636, 1073741824, 0, 1179637, 1073741824, 0, 1179638, 1073741824, 0, 1179639, 1073741824, 0, 1179640, 1073741824, 0, 1179641, 1073741824, 0, 1179642, 1073741824, 0, 1179643, 1073741824, 0, 1179644, 1073741824, 0, 1179645, 1073741824, 0, 1179646, 1073741824, 0, 1179647, 1073741824, 0, 1114112, 1073741824, 0, 1114113, 1073741824, 0, 1114114, 1073741824, 0, 1114115, 1073741824, 0, 1114116, 1073741824, 0, 1114117, 1073741824, 0, 1114118, 1073741824, 0, 1114119, 1073741824, 0, 1114120, 1073741824, 0, 1114121, 1073741824, 0, 1114122, 1073741824, 0, 1114123, 1073741824, 0, 1114124, 1073741824, 0, 1114125, 1073741824, 0, 1114126, 1073741824, 0, 1114127, 1073741824, 0, 1114128, 1073741824, 0, 1114129, 1073741824, 0, 1114130, 1073741824, 0, 1114131, 1073741824, 0, 1114132, 1073741824, 0, 1114133, 1073741824, 0, 1114134, 1073741824, 0, 1114135, 1073741824, 0, 1114136, 1073741824, 0, 1114137, 1073741824, 0, 1114138, 1073741824, 0, 1114139, 1073741824, 0, 1114140, 1073741824, 0, 1114141, 1073741824, 0, 1114142, 1073741824, 0, 1114143, 1073741824, 0, 1114144, 1073741824, 0, 1114145, 1073741824, 0, 1114146, 1073741824, 0, 1114147, 1073741824, 0, 1114148, 1073741824, 0, 1114149, 1073741824, 0, 1114150, 1073741824, 0, 1114151, 1073741824, 0, 1114152, 1073741824, 0, 1114153, 1073741824, 0, 1114154, 1073741824, 0, 1114155, 1073741824, 0, 1114156, 1073741824, 0, 1114157, 1073741824, 0, 1114158, 1073741824, 0, 1114159, 1073741824, 0, 1114160, 1073741824, 0, 1114161, 1073741824, 0, 1114162, 1073741824, 0, 1114163, 1073741824, 0, 1114164, 1073741824, 0, 1114165, 1073741824, 0, 1114166, 1073741824, 0, 1114167, 1073741824, 0, 1114168, 1073741824, 0, 1114169, 1073741824, 0, 1114170, 1073741824, 0, 1114171, 1073741824, 0, 1114172, 1073741824, 0, 1114173, 1073741824, 0, 1114174, 1073741824, 0, 1114175, 1073741824, 0, 1114176, 1073741824, 0, 1114177, 1073741824, 0, 1114178, 1073741824, 0, 1114179, 1073741824, 0, 1114180, 1073741824, 0, 1114181, 1073741824, 0, 1114182, 1073741824, 0, 1114183, 1073741824, 0, 1114184, 1073741824, 0, 1114185, 1073741824, 0, 1114186, 1073741824, 0, 1114187, 1073741824, 0, 1114188, 1073741824, 0, 1114189, 1073741824, 0, 1114190, 1073741824, 0, 1114191, 1073741824, 0, 1114192, 1073741824, 0, 1114193, 1073741824, 0, 1114194, 1073741824, 0, 1114195, 1073741824, 0, 1114196, 1073741824, 0, 1114197, 1073741824, 0, 1114198, 1073741824, 0, 1114199, 1073741824, 0, 1114200, 1073741824, 0, 1245153, 1073741824, 0, 1245154, 1073741824, 0, 1245155, 1073741824, 0, 1245156, 1073741824, 0, 1245157, 1073741824, 0, 1245158, 1073741824, 0, 1245159, 1073741824, 0, 1245160, 1073741824, 0, 1245161, 1073741824, 0, 1245162, 1073741824, 0, 1245163, 1073741824, 0, 1245164, 1073741824, 0, 1245165, 1073741824, 0, 1245166, 1073741824, 0, 1245167, 1073741824, 0, 1245168, 1073741824, 0, 1245169, 1073741824, 0, 1245170, 1073741824, 0, 1245171, 1073741824, 0, 1245172, 1073741824, 0, 1245173, 1073741824, 0, 1245174, 1073741824, 0, 1245175, 1073741824, 0, 1245176, 1073741824, 0, 1245177, 1073741824, 0, 1245178, 1073741824, 0, 1245179, 1073741824, 0, 1245180, 1073741824, 0, 1245181, 1073741824, 0, 1245182, 1073741824, 0, 1245183, 1073741824, 0, 1179648, 1073741824, 0, 1179649, 1073741824, 0, 1179650, 1073741824, 0, 1179651, 1073741824, 0, 1179652, 1073741824, 0, 1179653, 1073741824, 0, 1179654, 1073741824, 0, 1179655, 1073741824, 0, 1179656, 1073741824, 0, 1179657, 1073741824, 0, 1179658, 1073741824, 0, 1179659, 1073741824, 0, 1179660, 1073741824, 0, 1179661, 1073741824, 0, 1179662, 1073741824, 0, 1179663, 1073741824, 0, 1179664, 1073741824, 0, 1179665, 1073741824, 0, 1179666, 1073741824, 0, 1179667, 1073741824, 0, 1179668, 1073741824, 0, 1179669, 1073741824, 0, 1179670, 1073741824, 0, 1179671, 1073741824, 0, 1179672, 1073741824, 0, 1179673, 1073741824, 0, 1179674, 1073741824, 0, 1179675, 1073741824, 0, 1179676, 1073741824, 0, 1179677, 1073741824, 0, 1179678, 1073741824, 0, 1179679, 1073741824, 0, 1179680, 1073741824, 0, 1179681, 1073741824, 0, 1179682, 1073741824, 0, 1179683, 1073741824, 0, 1179684, 1073741824, 0, 1179685, 1073741824, 0, 1179686, 1073741824, 0, 1179687, 1073741824, 0, 1179688, 1073741824, 0, 1179689, 1073741824, 0, 1179690, 1073741824, 0, 1179691, 1073741824, 0, 1179692, 1073741824, 0, 1179693, 1073741824, 0, 1179694, 1073741824, 0, 1179695, 1073741824, 0, 1179696, 1073741824, 0, 1179697, 1073741824, 0, 1179698, 1073741824, 0, 1179699, 1073741824, 0, 1179700, 1073741824, 0, 1179701, 1073741824, 0, 1179702, 1073741824, 0, 1179703, 1073741824, 0, 1179704, 1073741824, 0, 1179705, 1073741824, 0, 1179706, 1073741824, 0, 1179707, 1073741824, 0, 1179708, 1073741824, 0, 1179709, 1073741824, 0, 1179710, 1073741824, 0, 1179711, 1073741824, 0, 1179712, 1073741824, 0, 1179713, 1073741824, 0, 1179714, 1073741824, 0, 1179715, 1073741824, 0, 1179716, 1073741824, 0, 1179717, 1073741824, 0, 1179718, 1073741824, 0, 1179719, 1073741824, 0, 1179720, 1073741824, 0, 1179721, 1073741824, 0, 1179722, 1073741824, 0, 1179723, 1073741824, 0, 1179724, 1073741824, 0, 1179725, 1073741824, 0, 1179726, 1073741824, 0, 1179727, 1073741824, 0, 1179728, 1073741824, 0, 1179729, 1073741824, 0, 1179730, 1073741824, 0, 1179731, 1073741824, 0, 1179732, 1073741824, 0, 1179733, 1073741824, 0, 1179734, 1073741824, 0, 1179735, 1073741824, 0, 1179736, 1073741824, 0, 1310689, 1073741824, 0, 1310690, 1073741824, 0, 1310691, 1073741824, 0, 1310692, 1073741824, 0, 1310693, 1073741824, 0, 1310694, 1073741824, 0, 1310695, 1073741824, 0, 1310696, 1073741824, 0, 1310697, 1073741824, 0, 1310698, 1073741824, 0, 1310699, 1073741824, 0, 1310700, 1073741824, 0, 1310701, 1073741824, 0, 1310702, 1073741824, 0, 1310703, 1073741824, 0, 1310704, 1073741824, 0, 1310705, 1073741824, 0, 1310706, 1073741824, 0, 1310707, 1073741824, 0, 1310708, 1073741824, 0, 1310709, 1073741824, 0, 1310710, 1073741824, 0, 1310711, 1073741824, 0, 1310712, 1073741824, 0, 1310713, 1073741824, 0, 1310714, 1073741824, 0, 1310715, 1073741824, 0, 1310716, 1073741824, 0, 1310717, 1073741824, 0, 1310718, 1073741824, 0, 1310719, 1073741824, 0, 1245184, 1073741824, 0, 1245185, 1073741824, 0, 1245186, 1073741824, 0, 1245187, 1073741824, 0, 1245188, 1073741824, 0, 1245189, 1073741824, 0, 1245190, 1073741824, 0, 1245191, 1073741824, 0, 1245192, 1073741824, 0, 1245193, 1073741824, 0, 1245194, 1073741824, 0, 1245195, 1073741824, 0, 1245196, 1073741824, 0, 1245197, 1073741824, 0, 1245198, 1073741824, 0, 1245199, 1073741824, 0, 1245200, 1073741824, 0, 1245201, 1073741824, 0, 1245202, 1073741824, 0, 1245203, 1073741824, 0, 1245204, 1073741824, 0, 1245205, 1073741824, 0, 1245206, 1073741824, 0, 1245207, 1073741824, 0, 1245208, 1073741824, 0, 1245209, 1073741824, 0, 1245210, 1073741824, 0, 1245211, 1073741824, 0, 1245212, 1073741824, 0, 1245213, 1073741824, 0, 1245214, 1073741824, 0, 1245215, 1073741824, 0, 1245216, 1073741824, 0, 1245217, 1073741824, 0, 1245218, 1073741824, 0, 1245219, 1073741824, 0, 1245220, 1073741824, 0, 1245221, 1073741824, 0, 1245222, 1073741824, 0, 1245223, 1073741824, 0, 1245224, 1073741824, 0, 1245225, 1073741824, 0, 1245226, 1073741824, 0, 1245227, 1073741824, 0, 1245228, 1073741824, 0, 1245229, 1073741824, 0, 1245230, 1073741824, 0, 1245231, 1073741824, 0, 1245232, 1073741824, 0, 1245233, 1073741824, 0, 1245234, 1073741824, 0, 1245235, 1073741824, 0, 1245236, 1073741824, 0, 1245237, 1073741824, 0, 1245238, 1073741824, 0, 1245239, 1073741824, 0, 1245240, 1073741824, 0, 1245241, 1073741824, 0, 1245242, 1073741824, 0, 1245243, 1073741824, 0, 1245244, 1073741824, 0, 1245245, 1073741824, 0, 1245246, 1073741824, 0, 1245247, 1073741824, 0, 1245248, 1073741824, 0, 1245249, 1073741824, 0, 1245250, 1073741824, 0, 1245251, 1073741824, 0, 1245252, 1073741824, 0, 1245253, 1073741824, 0, 1245254, 1073741824, 0, 1245255, 1073741824, 0, 1245256, 1073741824, 0, 1245257, 1073741824, 0, 1245258, 1073741824, 0, 1245259, 1073741824, 0, 1245260, 1073741824, 0, 1245261, 1073741824, 0, 1245262, 1073741824, 0, 1245263, 1073741824, 0, 1245264, 1073741824, 0, 1245265, 1073741824, 0, 1245266, 1073741824, 0, 1245267, 1073741824, 0, 1245268, 1073741824, 0, 1245269, 1073741824, 0, 1245270, 1073741824, 0, 1245271, 1073741824, 0, 1245272, 1073741824, 0, 1376225, 1073741824, 0, 1376226, 1073741824, 0, 1376227, 1073741824, 0, 1376228, 1073741824, 0, 1376229, 1073741824, 0, 1376230, 1073741824, 0, 1376231, 1073741824, 0, 1376232, 1073741824, 0, 1376233, 1073741824, 0, 1376234, 1073741824, 0, 1376235, 1073741824, 0, 1376236, 1073741824, 0, 1376237, 1073741824, 0, 1376238, 1073741824, 0, 1376239, 1073741824, 0, 1376240, 1073741824, 0, 1376241, 1073741824, 0, 1376242, 1073741824, 0, 1376243, 1073741824, 0, 1376244, 1073741824, 0, 1376245, 1073741824, 0, 1376246, 1073741824, 0, 1376247, 1073741824, 0, 1376248, 1073741824, 0, 1376249, 1073741824, 0, 1376250, 1073741824, 0, 1376251, 1073741824, 0, 1376252, 1073741824, 0, 1376253, 1073741824, 0, 1376254, 1073741824, 0, 1376255, 1073741824, 0, 1310720, 1073741824, 0, 1310721, 1073741824, 0, 1310722, 1073741824, 0, 1310723, 1073741824, 0, 1310724, 1073741824, 0, 1310725, 1073741824, 0, 1310726, 1073741824, 0, 1310727, 1073741824, 0, 1310728, 1073741824, 0, 1310729, 1073741824, 0, 1310730, 1073741824, 0, 1310731, 1073741824, 0, 1310732, 1073741824, 0, 1310733, 1073741824, 0, 1310734, 1073741824, 0, 1310735, 1073741824, 0, 1310736, 1073741824, 0, 1310737, 1073741824, 0, 1310738, 1073741824, 0, 1310739, 1073741824, 0, 1310740, 1073741824, 0, 1310741, 1073741824, 0, 1310742, 1073741824, 0, 1310743, 1073741824, 0, 1310744, 1073741824, 0, 1310745, 1073741824, 0, 1310746, 1073741824, 0, 1310747, 1073741824, 0, 1310748, 1073741824, 0, 1310749, 1073741824, 0, 1310750, 1073741824, 0, 1310751, 1073741824, 0, 1310752, 1073741824, 0, 1310753, 1073741824, 0, 1310754, 1073741824, 0, 1310755, 1073741824, 0, 1310756, 1073741824, 0, 1310757, 1073741824, 0, 1310758, 1073741824, 0, 1310759, 1073741824, 0, 1310760, 1073741824, 0, 1310761, 1073741824, 0, 1310762, 1073741824, 0, 1310763, 1073741824, 0, 1310764, 1073741824, 0, 1310765, 1073741824, 0, 1310766, 1073741824, 0, 1310767, 1073741824, 0, 1310768, 1073741824, 0, 1310769, 1073741824, 0, 1310770, 1073741824, 0, 1310771, 1073741824, 0, 1310772, 1073741824, 0, 1310773, 1073741824, 0, 1310774, 1073741824, 0, 1310775, 1073741824, 0, 1310776, 1073741824, 0, 1310777, 1073741824, 0, 1310778, 1073741824, 0, 1310779, 1073741824, 0, 1310780, 1073741824, 0, 1310781, 1073741824, 0, 1310782, 1073741824, 0, 1310783, 1073741824, 0, 1310784, 1073741824, 0, 1310785, 1073741824, 0, 1310786, 1073741824, 0, 1310787, 1073741824, 0, 1310788, 1073741824, 0, 1310789, 1073741824, 0, 1310790, 1073741824, 0, 1310791, 1073741824, 0, 1310792, 1073741824, 0, 1310793, 1073741824, 0, 1310794, 1073741824, 0, 1310795, 1073741824, 0, 1310796, 1073741824, 0, 1310797, 1073741824, 0, 1310798, 1073741824, 0, 1310799, 1073741824, 0, 1310800, 1073741824, 0, 1310801, 1073741824, 0, 1310802, 1073741824, 0, 1310803, 1073741824, 0, 1310804, 1073741824, 0, 1310805, 1073741824, 0, 1310806, 1073741824, 0, 1310807, 1073741824, 0, 1310808, 1073741824, 0, 1441761, 1073741824, 0, 1441762, 1073741824, 0, 1441763, 1073741824, 0, 1441764, 1073741824, 0, 1441765, 1073741824, 0, 1441766, 1073741824, 0, 1441767, 1073741824, 0, 1441768, 1073741824, 0, 1441769, 1073741824, 0, 1441770, 1073741824, 0, 1441771, 1073741824, 0, 1441772, 1073741824, 0, 1441773, 1073741824, 0, 1441774, 1073741824, 0, 1441775, 1073741824, 0, 1441776, 1073741824, 0, 1441777, 1073741824, 0, 1441778, 1073741824, 0, 1441779, 1073741824, 0, 1441780, 1073741824, 0, 1441781, 1073741824, 0, 1441782, 1073741824, 0, 1441783, 1073741824, 0, 1441784, 1073741824, 0, 1441785, 1073741824, 0, 1441786, 1073741824, 0, 1441787, 1073741824, 0, 1441788, 1073741824, 0, 1441789, 1073741824, 0, 1441790, 1073741824, 0, 1441791, 1073741824, 0, 1376256, 1073741824, 0, 1376257, 1073741824, 0, 1376258, 1073741824, 0, 1376259, 1073741824, 0, 1376260, 1073741824, 0, 1376261, 1073741824, 0, 1376262, 1073741824, 0, 1376263, 1073741824, 0, 1376264, 1073741824, 0, 1376265, 1073741824, 0, 1376266, 1073741824, 0, 1376267, 1073741824, 0, 1376268, 1073741824, 0, 1376269, 1073741824, 0, 1376270, 1073741824, 0, 1376271, 1073741824, 0, 1376272, 1073741824, 0, 1376273, 1073741824, 0, 1376274, 1073741824, 0, 1376275, 1073741824, 0, 1376276, 1073741824, 0, 1376277, 1073741824, 0, 1376278, 1073741824, 0, 1376279, 1073741824, 0, 1376280, 1073741824, 0, 1376281, 1073741824, 0, 1376282, 1073741824, 0, 1376283, 1073741824, 0, 1376284, 1073741824, 0, 1376285, 1073741824, 0, 1376286, 1073741824, 0, 1376287, 1073741824, 0, 1376288, 1073741824, 0, 1376289, 1073741824, 0, 1376290, 1073741824, 0, 1376291, 1073741824, 0, 1376292, 1073741824, 0, 1376293, 1073741824, 0, 1376294, 1073741824, 0, 1376295, 1073741824, 0, 1376296, 1073741824, 0, 1376297, 1073741824, 0, 1376298, 1073741824, 0, 1376299, 1073741824, 0, 1376300, 1073741824, 0, 1376301, 1073741824, 0, 1376302, 1073741824, 0, 1376303, 1073741824, 0, 1376304, 1073741824, 0, 1376305, 1073741824, 0, 1376306, 1073741824, 0, 1376307, 1073741824, 0, 1376308, 1073741824, 0, 1376309, 1073741824, 0, 1376310, 1073741824, 0, 1376311, 1073741824, 0, 1376312, 1073741824, 0, 1376313, 1073741824, 0, 1376314, 1073741824, 0, 1376315, 1073741824, 0, 1376316, 1073741824, 0, 1376317, 1073741824, 0, 1376318, 1073741824, 0, 1376319, 1073741824, 0, 1376320, 1073741824, 0, 1376321, 1073741824, 0, 1376322, 1073741824, 0, 1376323, 1073741824, 0, 1376324, 1073741824, 0, 1376325, 1073741824, 0, 1376326, 1073741824, 0, 1376327, 1073741824, 0, 1376328, 1073741824, 0, 1376329, 1073741824, 0, 1376330, 1073741824, 0, 1376331, 1073741824, 0, 1376332, 1073741824, 0, 1376333, 1073741824, 0, 1376334, 1073741824, 0, 1376335, 1073741824, 0, 1376336, 1073741824, 0, 1376337, 1073741824, 0, 1376338, 1073741824, 0, 1376339, 1073741824, 0, 1376340, 1073741824, 0, 1376341, 1073741824, 0, 1376342, 1073741824, 0, 1376343, 1073741824, 0, 1376344, 1073741824, 0, 1507297, 1073741824, 0, 1507298, 1073741824, 0, 1507299, 1073741824, 0, 1507300, 1073741824, 0, 1507301, 1073741824, 0, 1507302, 1073741824, 0, 1507303, 1073741824, 0, 1507304, 1073741824, 0, 1507305, 1073741824, 0, 1507306, 1073741824, 0, 1507307, 1073741824, 0, 1507308, 1073741824, 0, 1507309, 1073741824, 0, 1507310, 1073741824, 0, 1507311, 1073741824, 0, 1507312, 1073741824, 0, 1507313, 1073741824, 0, 1507314, 1073741824, 0, 1507315, 1073741824, 0, 1507316, 1073741824, 0, 1507317, 1073741824, 0, 1507318, 1073741824, 0, 1507319, 1073741824, 0, 1507320, 1073741824, 0, 1507321, 1073741824, 0, 1507322, 1073741824, 0, 1507323, 1073741824, 0, 1507324, 1073741824, 0, 1507325, 1073741824, 0, 1507326, 1073741824, 0, 1507327, 1073741824, 0, 1441792, 1073741824, 0, 1441793, 1073741824, 0, 1441794, 1073741824, 0, 1441795, 1073741824, 0, 1441796, 1073741824, 0, 1441797, 1073741824, 0, 1441798, 1073741824, 0, 1441799, 1073741824, 0, 1441800, 1073741824, 0, 1441801, 1073741824, 0, 1441802, 1073741824, 0, 1441803, 1073741824, 0, 1441804, 1073741824, 0, 1441805, 1073741824, 0, 1441806, 1073741824, 0, 1441807, 1073741824, 0, 1441808, 1073741824, 0, 1441809, 1073741824, 0, 1441810, 1073741824, 0, 1441811, 1073741824, 0, 1441812, 1073741824, 0, 1441813, 1073741824, 0, 1441814, 1073741824, 0, 1441815, 1073741824, 0, 1441816, 1073741824, 0, 1441817, 1073741824, 0, 1441818, 1073741824, 0, 1441819, 1073741824, 0, 1441820, 1073741824, 0, 1441821, 1073741824, 0, 1441822, 1073741824, 0, 1441823, 1073741824, 0, 1441824, 1073741824, 0, 1441825, 1073741824, 0, 1441826, 1073741824, 0, 1441827, 1073741824, 0, 1441828, 1073741824, 0, 1441829, 1073741824, 0, 1441830, 1073741824, 0, 1441831, 1073741824, 0, 1441832, 1073741824, 0, 1441833, 1073741824, 0, 1441834, 1073741824, 0, 1441835, 1073741824, 0, 1441836, 1073741824, 0, 1441837, 1073741824, 0, 1441838, 1073741824, 0, 1441839, 1073741824, 0, 1441840, 1073741824, 0, 1441841, 1073741824, 0, 1441842, 1073741824, 0, 1441843, 1073741824, 0, 1441844, 1073741824, 0, 1441845, 1073741824, 0, 1441846, 1073741824, 0, 1441847, 1073741824, 0, 1441848, 1073741824, 0, 1441849, 1073741824, 0, 1441850, 1073741824, 0, 1441851, 1073741824, 0, 1441852, 1073741824, 0, 1441853, 1073741824, 0, 1441854, 1073741824, 0, 1441855, 1073741824, 0, 1441856, 1073741824, 0, 1441857, 1073741824, 0, 1441858, 1073741824, 0, 1441859, 1073741824, 0, 1441860, 1073741824, 0, 1441861, 1073741824, 0, 1441862, 1073741824, 0, 1441863, 1073741824, 0, 1441864, 1073741824, 0, 1441865, 1073741824, 0, 1441866, 1073741824, 0, 1441867, 1073741824, 0, 1441868, 1073741824, 0, 1441869, 1073741824, 0, 1441870, 1073741824, 0, 1441871, 1073741824, 0, 1441872, 1073741824, 0, 1441873, 1073741824, 0, 1441874, 1073741824, 0, 1441875, 1073741824, 0, 1441876, 1073741824, 0, 1441877, 1073741824, 0, 1441878, 1073741824, 0, 1441879, 1073741824, 0, 1441880, 1073741824, 0 )
__meta__ = {
"_edit_lock_": true
}

[node name="Text" type="CanvasLayer" parent="."]
layer = 100
follow_viewport_enable = true

[node name="BindingTextReplacer" type="Node" parent="Text"]
script = ExtResource( 1 )
formatString = "[wave]"

[node name="LabelMove" type="RichTextLabel" parent="Text/BindingTextReplacer"]
margin_left = -336.0
margin_top = 460.0
margin_right = 576.0
margin_bottom = 530.0
custom_fonts/normal_font = ExtResource( 4 )
bbcode_enabled = true
bbcode_text = " Move: [(L)] and [(R)]"
text = " Move: [(L)] and [(R)]"
__meta__ = {
"_edit_use_anchors_": false
}

[node name="LabelSettings" type="RichTextLabel" parent="Text/BindingTextReplacer"]
margin_left = -272.0
margin_top = 544.0
margin_right = 640.0
margin_bottom = 614.0
custom_fonts/normal_font = ExtResource( 4 )
bbcode_enabled = true
bbcode_text = " Change settings: [(P)]"
text = " Change settings: [(P)]"
__meta__ = {
"_edit_use_anchors_": false
}

[node name="LabelJump" type="RichTextLabel" parent="Text/BindingTextReplacer"]
margin_left = 656.0
margin_top = 460.0
margin_right = 1280.0
margin_bottom = 530.0
custom_fonts/normal_font = ExtResource( 4 )
bbcode_enabled = true
bbcode_text = " Jump: [(J)]"
text = " Jump: [(J)]"
__meta__ = {
"_edit_use_anchors_": false
}

[node name="LabelWallJump" type="RichTextLabel" parent="Text"]
margin_left = 2256.0
margin_top = -80.0
margin_right = 2688.0
margin_bottom = 210.0
custom_fonts/normal_font = ExtResource( 4 )
bbcode_enabled = true
bbcode_text = "[wave][center]Wall jump:
hold left/right
+ jump"
text = "Wall jump:
hold left/right
+ jump"
__meta__ = {
"_edit_use_anchors_": false
}

[node name="Sawblades" type="Node2D" parent="."]
__meta__ = {
"_edit_lock_": true
}

[node name="Large1" parent="Sawblades" instance=ExtResource( 6 )]
position = Vector2( -512, 272 )

[node name="Medium1" parent="Sawblades" instance=ExtResource( 10 )]
position = Vector2( 1008, 336 )

[node name="Medium2" parent="Sawblades" instance=ExtResource( 10 )]
position = Vector2( 1552, 288 )

[node name="Large2" parent="Sawblades" instance=ExtResource( 6 )]
position = Vector2( 1872, 272 )

[node name="Medium3" parent="Sawblades" instance=ExtResource( 10 )]
position = Vector2( 2272, -336 )

[node name="Goal" parent="." instance=ExtResource( 5 )]
position = Vector2( 1664, -144 )
