[gd_scene load_steps=10 format=2]

[ext_resource path="res://Scripts/Nodes/UI/BindingTextReplacer.gd" type="Script" id=1]
[ext_resource path="res://Tilesets/Ground.tres" type="TileSet" id=2]
[ext_resource path="res://Scripts/Nodes/VisualEffects/Pseudo3DManager.gd" type="Script" id=3]
[ext_resource path="res://Fonts/TutorialFont.tres" type="DynamicFont" id=4]
[ext_resource path="res://Scenes/Entities/Goal.tscn" type="PackedScene" id=5]
[ext_resource path="res://Scenes/Entities/Obstacles/Sawblades/LargeSawblade.tscn" type="PackedScene" id=6]
[ext_resource path="res://Scenes/LevelScoreManager.tscn" type="PackedScene" id=7]
[ext_resource path="res://Scenes/Entities/Obstacles/Sawblades/MediumSawblade.tscn" type="PackedScene" id=8]
[ext_resource path="res://Scenes/Entities/Obstacles/Sawblades/SmallSawblade.tscn" type="PackedScene" id=9]

[node name="Level2" type="Node2D"]
__meta__ = {
"_edit_lock_": true
}

[node name="Pseudo3DManager" type="Node" parent="."]
script = ExtResource( 3 )

[node name="LevelScoreManager" parent="." instance=ExtResource( 7 )]

[node name="CanvasLayer" type="CanvasLayer" parent="."]
follow_viewport_enable = true

[node name="Ground" type="TileMap" parent="CanvasLayer"]
tile_set = ExtResource( 2 )
cell_size = Vector2( 32, 32 )
cell_quadrant_size = 32
collision_mask = 524288
format = 1
tile_data = PoolIntArray( -851902, 1, 0, -851901, 1, 0, -851900, 1, 0, -851899, 1, 0, -851898, 1, 0, -851897, 1, 0, -851896, 1, 0, -851895, 1, 0, -851894, 1, 0, -851893, 1, 0, -851892, 1, 0, -851891, 1, 0, -851890, 1, 0, -851889, 1, 0, -786366, 1, 0, -786365, 0, 0, -786364, 0, 0, -786363, 0, 0, -786362, 0, 0, -786361, 0, 0, -786360, 0, 0, -786359, 0, 0, -786358, 0, 0, -786357, 0, 0, -786356, 0, 0, -786355, 0, 0, -786354, 0, 0, -786353, 1, 0, -786333, 1, 0, -786332, 1, 0, -786331, 1, 0, -786330, 1, 0, -786329, 1, 0, -786328, 1, 0, -786327, 1, 0, -786326, 1, 0, -786325, 1, 0, -786324, 1, 0, -786323, 1, 0, -720830, 1, 0, -720829, 0, 0, -720828, 0, 0, -720827, 0, 0, -720826, 0, 0, -720825, 0, 0, -720824, 0, 0, -720823, 0, 0, -720822, 0, 0, -720821, 0, 0, -720820, 0, 0, -720819, 0, 0, -720818, 0, 0, -720817, 1, 0, -720797, 1, 0, -720796, 0, 0, -720795, 0, 0, -720794, 0, 0, -720793, 0, 0, -720792, 0, 0, -720791, 0, 0, -720790, 0, 0, -720789, 0, 0, -720788, 0, 0, -720787, 1, 0, -655294, 1, 0, -655293, 0, 0, -655292, 0, 0, -655291, 0, 0, -655290, 0, 0, -655289, 0, 0, -655288, 0, 0, -655287, 0, 0, -655286, 0, 0, -655285, 0, 0, -655284, 0, 0, -655283, 0, 0, -655282, 0, 0, -655281, 1, 0, -655261, 1, 0, -655260, 1, 0, -655259, 1, 0, -655258, 1, 0, -655257, 1, 0, -655256, 1, 0, -655255, 1, 0, -655254, 1, 0, -655253, 1, 0, -655252, 1, 0, -655251, 1, 0, -589758, 1, 0, -589757, 0, 0, -589756, 0, 0, -589755, 0, 0, -589754, 0, 0, -589753, 0, 0, -589752, 0, 0, -589751, 0, 0, -589750, 0, 0, -589749, 0, 0, -589748, 0, 0, -589747, 0, 0, -589746, 0, 0, -589745, 1, 0, -589736, 1, 0, -589735, 1, 0, -589734, 1, 0, -589733, 1, 0, -589732, 1, 0, -589731, 1, 0, -589730, 1, 0, -589729, 1, 0, -589728, 1, 0, -589727, 1, 0, -524222, 1, 0, -524221, 0, 0, -524220, 0, 0, -524219, 0, 0, -524218, 0, 0, -524217, 0, 0, -524216, 0, 0, -524215, 0, 0, -524214, 0, 0, -524213, 0, 0, -524212, 0, 0, -524211, 0, 0, -524210, 0, 0, -524209, 1, 0, -524200, 1, 0, -524199, 0, 0, -524198, 0, 0, -524197, 0, 0, -524196, 0, 0, -524195, 0, 0, -524194, 0, 0, -524193, 0, 0, -524192, 0, 0, -524191, 1, 0, -458686, 1, 0, -458685, 0, 0, -458684, 0, 0, -458683, 0, 0, -458682, 0, 0, -458681, 0, 0, -458680, 0, 0, -458679, 0, 0, -458678, 0, 0, -458677, 0, 0, -458676, 0, 0, -458675, 0, 0, -458674, 0, 0, -458673, 1, 0, -458664, 1, 0, -458663, 0, 0, -458662, 0, 0, -458661, 0, 0, -458660, 0, 0, -458659, 0, 0, -458658, 0, 0, -458657, 0, 0, -458656, 0, 0, -458655, 1, 0, -393150, 1, 0, -393149, 0, 0, -393148, 0, 0, -393147, 0, 0, -393146, 0, 0, -393145, 0, 0, -393144, 0, 0, -393143, 0, 0, -393142, 0, 0, -393141, 0, 0, -393140, 0, 0, -393139, 0, 0, -393138, 0, 0, -393137, 1, 0, -393128, 1, 0, -393127, 1, 0, -393126, 1, 0, -393125, 1, 0, -393124, 1, 0, -393123, 1, 0, -393122, 1, 0, -393121, 1, 0, -393120, 1, 0, -393119, 1, 0, -327614, 1, 0, -327613, 0, 0, -327612, 0, 0, -327611, 0, 0, -327610, 0, 0, -327609, 0, 0, -327608, 0, 0, -327607, 0, 0, -327606, 0, 0, -327605, 0, 0, -327604, 0, 0, -327603, 0, 0, -327602, 0, 0, -327601, 1, 0, -262078, 1, 0, -262077, 0, 0, -262076, 0, 0, -262075, 0, 0, -262074, 0, 0, -262073, 0, 0, -262072, 0, 0, -262071, 0, 0, -262070, 0, 0, -262069, 0, 0, -262068, 0, 0, -262067, 0, 0, -262066, 0, 0, -262065, 1, 0, -196542, 1, 0, -196541, 0, 0, -196540, 0, 0, -196539, 0, 0, -196538, 0, 0, -196537, 0, 0, -196536, 0, 0, -196535, 0, 0, -196534, 0, 0, -196533, 0, 0, -196532, 0, 0, -196531, 0, 0, -196530, 0, 0, -196529, 1, 0, -131006, 1, 0, -131005, 0, 0, -131004, 0, 0, -131003, 0, 0, -131002, 0, 0, -131001, 0, 0, -131000, 0, 0, -130999, 0, 0, -130998, 0, 0, -130997, 0, 0, -130996, 0, 0, -130995, 0, 0, -130994, 0, 0, -130993, 1, 0, -130974, 1, 0, -130973, 1, 0, -130972, 1, 0, -130971, 1, 0, -130970, 1, 0, -130969, 1, 0, -130968, 1, 0, -130967, 1, 0, -130966, 1, 0, -130965, 1, 0, -130964, 1, 0, -130963, 1, 0, -130962, 1, 0, -130961, 1, 0, -130960, 1, 0, -130959, 1, 0, -130958, 1, 0, -130957, 1, 0, -130956, 1, 0, -130955, 1, 0, -130954, 1, 0, -130953, 1, 0, -130952, 1, 0, -130951, 1, 0, -130950, 1, 0, -130949, 1, 0, -130948, 1, 0, -130947, 1, 0, -130946, 1, 0, -130945, 1, 0, -130944, 1, 0, -130943, 1, 0, -65470, 1, 0, -65469, 0, 0, -65468, 0, 0, -65467, 0, 0, -65466, 0, 0, -65465, 0, 0, -65464, 0, 0, -65463, 0, 0, -65462, 0, 0, -65461, 0, 0, -65460, 0, 0, -65459, 0, 0, -65458, 0, 0, -65457, 1, 0, -65438, 1, 0, -65437, 0, 0, -65436, 1073741824, 0, -65435, 1073741824, 0, -65434, 1073741824, 0, -65433, 1073741824, 0, -65432, 1073741824, 0, -65431, 1073741824, 0, -65430, 1073741824, 0, -65429, 1073741824, 0, -65428, 1073741824, 0, -65427, 1073741824, 0, -65426, 1073741824, 0, -65425, 1073741824, 0, -65424, 1073741824, 0, -65423, 1073741824, 0, -65422, 1073741824, 0, -65421, 1073741824, 0, -65420, 1073741824, 0, -65419, 1073741824, 0, -65418, 1073741824, 0, -65417, 1073741824, 0, -65416, 1073741824, 0, -65415, 1073741824, 0, -65414, 1073741824, 0, -65413, 1073741824, 0, -65412, 1073741824, 0, -65411, 1073741824, 0, -65410, 1073741824, 0, -65409, 1073741824, 0, -65408, 1073741824, 0, -65407, 1073741824, 0, 66, 1, 0, 67, 0, 0, 68, 0, 0, 69, 0, 0, 70, 0, 0, 71, 0, 0, 72, 0, 0, 73, 0, 0, 74, 0, 0, 75, 0, 0, 76, 0, 0, 77, 0, 0, 78, 0, 0, 79, 1, 0, 98, 1, 0, 99, 0, 0, 100, 1073741824, 0, 101, 1073741824, 0, 102, 1073741824, 0, 103, 1073741824, 0, 104, 1073741824, 0, 105, 1073741824, 0, 106, 1073741824, 0, 107, 1073741824, 0, 108, 1073741824, 0, 109, 1073741824, 0, 110, 1073741824, 0, 111, 1073741824, 0, 112, 1073741824, 0, 113, 1073741824, 0, 114, 1073741824, 0, 115, 1073741824, 0, 116, 1073741824, 0, 117, 1073741824, 0, 118, 1073741824, 0, 119, 1073741824, 0, 120, 1073741824, 0, 121, 1073741824, 0, 122, 1073741824, 0, 123, 1073741824, 0, 124, 1073741824, 0, 125, 1073741824, 0, 126, 1073741824, 0, 127, 1073741824, 0, 128, 1073741824, 0, 129, 1073741824, 0, 65602, 1, 0, 65603, 0, 0, 65604, 0, 0, 65605, 0, 0, 65606, 0, 0, 65607, 0, 0, 65608, 0, 0, 65609, 0, 0, 65610, 0, 0, 65611, 0, 0, 65612, 0, 0, 65613, 0, 0, 65614, 0, 0, 65615, 1, 0, 65616, 1, 0, 65617, 1, 0, 65618, 1, 0, 65619, 1, 0, 65620, 1, 0, 65621, 1, 0, 65622, 1, 0, 65623, 1, 0, 65624, 1, 0, 65634, 1, 0, 65635, 0, 0, 65636, 1073741824, 0, 65637, 1073741824, 0, 65638, 1073741824, 0, 65639, 1073741824, 0, 65640, 1073741824, 0, 65641, 1073741824, 0, 65642, 1073741824, 0, 65643, 1073741824, 0, 65644, 1073741824, 0, 65645, 1073741824, 0, 65646, 1073741824, 0, 65647, 1073741824, 0, 65648, 1073741824, 0, 65649, 1073741824, 0, 65650, 1073741824, 0, 65651, 1073741824, 0, 65652, 1073741824, 0, 65653, 1073741824, 0, 65654, 1073741824, 0, 65655, 1073741824, 0, 65656, 1073741824, 0, 65657, 1073741824, 0, 65658, 1073741824, 0, 65659, 1073741824, 0, 65660, 1073741824, 0, 65661, 1073741824, 0, 65662, 1073741824, 0, 65663, 1073741824, 0, 65664, 1073741824, 0, 65665, 1073741824, 0, 131138, 1, 0, 131139, 0, 0, 131140, 0, 0, 131141, 0, 0, 131142, 0, 0, 131143, 0, 0, 131144, 0, 0, 131145, 0, 0, 131146, 0, 0, 131147, 0, 0, 131148, 0, 0, 131149, 0, 0, 131150, 0, 0, 131151, 0, 0, 131152, 0, 0, 131153, 0, 0, 131154, 0, 0, 131155, 0, 0, 131156, 0, 0, 131157, 0, 0, 131158, 0, 0, 131159, 0, 0, 131160, 1, 0, 131170, 1, 0, 131171, 0, 0, 131172, 1073741824, 0, 131173, 1073741824, 0, 131174, 1073741824, 0, 131175, 1073741824, 0, 131176, 1073741824, 0, 131177, 1073741824, 0, 131178, 1073741824, 0, 131179, 1073741824, 0, 131180, 1073741824, 0, 131181, 1073741824, 0, 131182, 1073741824, 0, 131183, 1073741824, 0, 131184, 1073741824, 0, 131185, 1073741824, 0, 131186, 1073741824, 0, 131187, 1073741824, 0, 131188, 1073741824, 0, 131189, 1073741824, 0, 131190, 1073741824, 0, 131191, 1073741824, 0, 131192, 1073741824, 0, 131193, 1073741824, 0, 131194, 1073741824, 0, 131195, 1073741824, 0, 131196, 1073741824, 0, 131197, 1073741824, 0, 131198, 1073741824, 0, 131199, 1073741824, 0, 131200, 1073741824, 0, 131201, 1073741824, 0, 196674, 1, 0, 196675, 1, 0, 196676, 1, 0, 196677, 1, 0, 196678, 1, 0, 196679, 1, 0, 196680, 1, 0, 196681, 1, 0, 196682, 1, 0, 196683, 1, 0, 196684, 1, 0, 196685, 1, 0, 196686, 1, 0, 196687, 1, 0, 196688, 1, 0, 196689, 1, 0, 196690, 1, 0, 196691, 1, 0, 196692, 1, 0, 196693, 1, 0, 196694, 1, 0, 196695, 1, 0, 196696, 1, 0, 196706, 1, 0, 196707, 0, 0, 196708, 1073741824, 0, 196709, 1073741824, 0, 196710, 1073741824, 0, 196711, 1073741824, 0, 196712, 1073741824, 0, 196713, 1073741824, 0, 196714, 1073741824, 0, 196715, 1073741824, 0, 196716, 1073741824, 0, 196717, 1073741824, 0, 196718, 1073741824, 0, 196719, 1073741824, 0, 196720, 1073741824, 0, 196721, 1073741824, 0, 196722, 1073741824, 0, 196723, 1073741824, 0, 196724, 1073741824, 0, 196725, 1073741824, 0, 196726, 1073741824, 0, 196727, 1073741824, 0, 196728, 1073741824, 0, 196729, 1073741824, 0, 196730, 1073741824, 0, 196731, 1073741824, 0, 196732, 1073741824, 0, 196733, 1073741824, 0, 196734, 1073741824, 0, 196735, 1073741824, 0, 196736, 1073741824, 0, 196737, 1073741824, 0, 262242, 1, 0, 262243, 0, 0, 262244, 1073741824, 0, 262245, 1073741824, 0, 262246, 1073741824, 0, 262247, 1073741824, 0, 262248, 1073741824, 0, 262249, 1073741824, 0, 262250, 1073741824, 0, 262251, 1073741824, 0, 262252, 1073741824, 0, 262253, 1073741824, 0, 262254, 1073741824, 0, 262255, 1073741824, 0, 262256, 1073741824, 0, 262257, 1073741824, 0, 262258, 1073741824, 0, 262259, 1073741824, 0, 262260, 1073741824, 0, 262261, 1073741824, 0, 262262, 1073741824, 0, 262263, 1073741824, 0, 262264, 1073741824, 0, 262265, 1073741824, 0, 262266, 1073741824, 0, 262267, 1073741824, 0, 262268, 1073741824, 0, 262269, 1073741824, 0, 262270, 1073741824, 0, 262271, 1073741824, 0, 262272, 1073741824, 0, 262273, 1073741824, 0, 327778, 1, 0, 327779, 0, 0, 327780, 1073741824, 0, 327781, 1073741824, 0, 327782, 1073741824, 0, 327783, 1073741824, 0, 327784, 1073741824, 0, 327785, 1073741824, 0, 327786, 1073741824, 0, 327787, 1073741824, 0, 327788, 1073741824, 0, 327789, 1073741824, 0, 327790, 1073741824, 0, 327791, 1073741824, 0, 327792, 1073741824, 0, 327793, 1073741824, 0, 327794, 1073741824, 0, 327795, 1073741824, 0, 327796, 1073741824, 0, 327797, 1073741824, 0, 327798, 1073741824, 0, 327799, 1073741824, 0, 327800, 1073741824, 0, 327801, 1073741824, 0, 327802, 1073741824, 0, 327803, 1073741824, 0, 327804, 1073741824, 0, 327805, 1073741824, 0, 327806, 1073741824, 0, 327807, 1073741824, 0, 327808, 1073741824, 0, 327809, 1073741824, 0, 393314, 1, 0, 393315, 0, 0, 393316, 1073741824, 0, 393317, 1073741824, 0, 393318, 1073741824, 0, 393319, 1073741824, 0, 393320, 1073741824, 0, 393321, 1073741824, 0, 393322, 1073741824, 0, 393323, 1073741824, 0, 393324, 1073741824, 0, 393325, 1073741824, 0, 393326, 1073741824, 0, 393327, 1073741824, 0, 393328, 1073741824, 0, 393329, 1073741824, 0, 393330, 1073741824, 0, 393331, 1073741824, 0, 393332, 1073741824, 0, 393333, 1073741824, 0, 393334, 1073741824, 0, 393335, 1073741824, 0, 393336, 1073741824, 0, 393337, 1073741824, 0, 393338, 1073741824, 0, 393339, 1073741824, 0, 393340, 1073741824, 0, 393341, 1073741824, 0, 393342, 1073741824, 0, 393343, 1073741824, 0, 393344, 1073741824, 0, 393345, 1073741824, 0, 458850, 1, 0, 458851, 0, 0, 458852, 1073741824, 0, 458853, 1073741824, 0, 458854, 1073741824, 0, 458855, 1073741824, 0, 458856, 1073741824, 0, 458857, 1073741824, 0, 458858, 1073741824, 0, 458859, 1073741824, 0, 458860, 1073741824, 0, 458861, 1073741824, 0, 458862, 1073741824, 0, 458863, 1073741824, 0, 458864, 1073741824, 0, 458865, 1073741824, 0, 458866, 1073741824, 0, 458867, 1073741824, 0, 458868, 1073741824, 0, 458869, 1073741824, 0, 458870, 1073741824, 0, 458871, 1073741824, 0, 458872, 1073741824, 0, 458873, 1073741824, 0, 458874, 1073741824, 0, 458875, 1073741824, 0, 458876, 1073741824, 0, 458877, 1073741824, 0, 458878, 1073741824, 0, 458879, 1073741824, 0, 458880, 1073741824, 0, 458881, 1073741824, 0, 524386, 1, 0, 524387, 0, 0, 524388, 1073741824, 0, 524389, 1073741824, 0, 524390, 1073741824, 0, 524391, 1073741824, 0, 524392, 1073741824, 0, 524393, 1073741824, 0, 524394, 1073741824, 0, 524395, 1073741824, 0, 524396, 1073741824, 0, 524397, 1073741824, 0, 524398, 1073741824, 0, 524399, 1073741824, 0, 524400, 1073741824, 0, 524401, 1073741824, 0, 524402, 1073741824, 0, 524403, 1073741824, 0, 524404, 1073741824, 0, 524405, 1073741824, 0, 524406, 1073741824, 0, 524407, 1073741824, 0, 524408, 1073741824, 0, 524409, 1073741824, 0, 524410, 1073741824, 0, 524411, 1073741824, 0, 524412, 1073741824, 0, 524413, 1073741824, 0, 524414, 1073741824, 0, 524415, 1073741824, 0, 524416, 1073741824, 0, 524417, 1073741824, 0, 589922, 1, 0, 589923, 0, 0, 589924, 1073741824, 0, 589925, 1073741824, 0, 589926, 1073741824, 0, 589927, 1073741824, 0, 589928, 1073741824, 0, 589929, 1073741824, 0, 589930, 1073741824, 0, 589931, 1073741824, 0, 589932, 1073741824, 0, 589933, 1073741824, 0, 589934, 1073741824, 0, 589935, 1073741824, 0, 589936, 1073741824, 0, 589937, 1073741824, 0, 589938, 1073741824, 0, 589939, 1073741824, 0, 589940, 1073741824, 0, 589941, 1073741824, 0, 589942, 1073741824, 0, 589943, 1073741824, 0, 589944, 1073741824, 0, 589945, 1073741824, 0, 589946, 1073741824, 0, 589947, 1073741824, 0, 589948, 1073741824, 0, 589949, 1073741824, 0, 589950, 1073741824, 0, 589951, 1073741824, 0, 589952, 1073741824, 0, 589953, 1073741824, 0, 655458, 1, 0, 655459, 0, 0, 655460, 1073741824, 0, 655461, 1073741824, 0, 655462, 1073741824, 0, 655463, 1073741824, 0, 655464, 1073741824, 0, 655465, 1073741824, 0, 655466, 1073741824, 0, 655467, 1073741824, 0, 655468, 1073741824, 0, 655469, 1073741824, 0, 655470, 1073741824, 0, 655471, 1073741824, 0, 655472, 1073741824, 0, 655473, 1073741824, 0, 655474, 1073741824, 0, 655475, 1073741824, 0, 655476, 1073741824, 0, 655477, 1073741824, 0, 655478, 1073741824, 0, 655479, 1073741824, 0, 655480, 1073741824, 0, 655481, 1073741824, 0, 655482, 1073741824, 0, 655483, 1073741824, 0, 655484, 1073741824, 0, 655485, 1073741824, 0, 655486, 1073741824, 0, 655487, 1073741824, 0, 655488, 1073741824, 0, 655489, 1073741824, 0, 720994, 1, 0, 720995, 0, 0, 720996, 1073741824, 0, 720997, 1073741824, 0, 720998, 1073741824, 0, 720999, 1073741824, 0, 721000, 1073741824, 0, 721001, 1073741824, 0, 721002, 1073741824, 0, 721003, 1073741824, 0, 721004, 1073741824, 0, 721005, 1073741824, 0, 721006, 1073741824, 0, 721007, 1073741824, 0, 721008, 1073741824, 0, 721009, 1073741824, 0, 721010, 1073741824, 0, 721011, 1073741824, 0, 721012, 1073741824, 0, 721013, 1073741824, 0, 721014, 1073741824, 0, 721015, 1073741824, 0, 721016, 1073741824, 0, 721017, 1073741824, 0, 721018, 1073741824, 0, 721019, 1073741824, 0, 721020, 1073741824, 0, 721021, 1073741824, 0, 721022, 1073741824, 0, 721023, 1073741824, 0, 721024, 1073741824, 0, 721025, 1073741824, 0, 786530, 1, 0, 786531, 0, 0, 786532, 1073741824, 0, 786533, 1073741824, 0, 786534, 1073741824, 0, 786535, 1073741824, 0, 786536, 1073741824, 0, 786537, 1073741824, 0, 786538, 1073741824, 0, 786539, 1073741824, 0, 786540, 1073741824, 0, 786541, 1073741824, 0, 786542, 1073741824, 0, 786543, 1073741824, 0, 786544, 1073741824, 0, 786545, 1073741824, 0, 786546, 1073741824, 0, 786547, 1073741824, 0, 786548, 1073741824, 0, 786549, 1073741824, 0, 786550, 1073741824, 0, 786551, 1073741824, 0, 786552, 1073741824, 0, 786553, 1073741824, 0, 786554, 1073741824, 0, 786555, 1073741824, 0, 786556, 1073741824, 0, 786557, 1073741824, 0, 786558, 1073741824, 0, 786559, 1073741824, 0, 786560, 1073741824, 0, 786561, 1073741824, 0, 917472, 1, 0, 917473, 1, 0, 917474, 1, 0, 917475, 1, 0, 917476, 1, 0, 917477, 1, 0, 917478, 1, 0, 917479, 1, 0, 917480, 1, 0, 917481, 1, 0, 917482, 1, 0, 917483, 1, 0, 917484, 1, 0, 917485, 1, 0, 917486, 1, 0, 917487, 1, 0, 917488, 1, 0, 917489, 1, 0, 917490, 1, 0, 917491, 1, 0, 917492, 1, 0, 917493, 1, 0, 917494, 1, 0, 917495, 1, 0, 917496, 1, 0, 917497, 1, 0, 917498, 1, 0, 917499, 1, 0, 917500, 1, 0, 917501, 1, 0, 917502, 1, 0, 917503, 1, 0, 851968, 1, 0, 851969, 1, 0, 851970, 1, 0, 851971, 1, 0, 851972, 1, 0, 851973, 1, 0, 851974, 1, 0, 851975, 1, 0, 851976, 1, 0, 851977, 1, 0, 851978, 1, 0, 851979, 1, 0, 851980, 1, 0, 851981, 1, 0, 851982, 1, 0, 851983, 1, 0, 851984, 1, 0, 851985, 1, 0, 851986, 1, 0, 851987, 1, 0, 851988, 1, 0, 851989, 1, 0, 851990, 1, 0, 851991, 1, 0, 851992, 1, 0, 851993, 1, 0, 851994, 1, 0, 851995, 1, 0, 851996, 1, 0, 851997, 1, 0, 851998, 1, 0, 852016, 1, 0, 852017, 1, 0, 852018, 1, 0, 852019, 1, 0, 852020, 1, 0, 852021, 1, 0, 852022, 1, 0, 852023, 1, 0, 852024, 1, 0, 852025, 1, 0, 852026, 1, 0, 852027, 1, 0, 852028, 1, 0, 852029, 1, 0, 852030, 1, 0, 852031, 1, 0, 852032, 1, 0, 852033, 1, 0, 852034, 1, 0, 852035, 1, 0, 852036, 1, 0, 852037, 1, 0, 852038, 1, 0, 852039, 1, 0, 852040, 1, 0, 852041, 1, 0, 852042, 1, 0, 852043, 1, 0, 852066, 1, 0, 852067, 0, 0, 852068, 1073741824, 0, 852069, 1073741824, 0, 852070, 1073741824, 0, 852071, 1073741824, 0, 852072, 1073741824, 0, 852073, 1073741824, 0, 852074, 1073741824, 0, 852075, 1073741824, 0, 852076, 1073741824, 0, 852077, 1073741824, 0, 852078, 1073741824, 0, 852079, 1073741824, 0, 852080, 1073741824, 0, 852081, 1073741824, 0, 852082, 1073741824, 0, 852083, 1073741824, 0, 852084, 1073741824, 0, 852085, 1073741824, 0, 852086, 1073741824, 0, 852087, 1073741824, 0, 852088, 1073741824, 0, 852089, 1073741824, 0, 852090, 1073741824, 0, 852091, 1073741824, 0, 852092, 1073741824, 0, 852093, 1073741824, 0, 852094, 1073741824, 0, 852095, 1073741824, 0, 852096, 1073741824, 0, 852097, 1073741824, 0, 983008, 1073741824, 0, 983009, 1073741824, 0, 983010, 1073741824, 0, 983011, 1073741824, 0, 983012, 1073741824, 0, 983013, 1073741824, 0, 983014, 1073741824, 0, 983015, 1073741824, 0, 983016, 1073741824, 0, 983017, 1073741824, 0, 983018, 1073741824, 0, 983019, 1073741824, 0, 983020, 1073741824, 0, 983021, 1073741824, 0, 983022, 1073741824, 0, 983023, 1073741824, 0, 983024, 1073741824, 0, 983025, 1073741824, 0, 983026, 1073741824, 0, 983027, 1073741824, 0, 983028, 1073741824, 0, 983029, 1073741824, 0, 983030, 1073741824, 0, 983031, 1073741824, 0, 983032, 1073741824, 0, 983033, 1073741824, 0, 983034, 1073741824, 0, 983035, 1073741824, 0, 983036, 1073741824, 0, 983037, 1073741824, 0, 983038, 1073741824, 0, 983039, 1073741824, 0, 917504, 1073741824, 0, 917505, 1073741824, 0, 917506, 1073741824, 0, 917507, 1073741824, 0, 917508, 1073741824, 0, 917509, 1073741824, 0, 917510, 1073741824, 0, 917511, 1073741824, 0, 917512, 1073741824, 0, 917513, 1073741824, 0, 917514, 1073741824, 0, 917515, 1073741824, 0, 917516, 1073741824, 0, 917517, 1073741824, 0, 917518, 1073741824, 0, 917519, 1073741824, 0, 917520, 1073741824, 0, 917521, 1073741824, 0, 917522, 1073741824, 0, 917523, 1073741824, 0, 917524, 1073741824, 0, 917525, 1073741824, 0, 917526, 1073741824, 0, 917527, 1073741824, 0, 917528, 1073741824, 0, 917529, 1073741824, 0, 917530, 1073741824, 0, 917531, 1073741824, 0, 917532, 1073741824, 0, 917533, 1073741824, 0, 917534, 1, 0, 917552, 1, 0, 917553, 1073741824, 0, 917554, 1073741824, 0, 917555, 1073741824, 0, 917556, 1073741824, 0, 917557, 1073741824, 0, 917558, 1073741824, 0, 917559, 1073741824, 0, 917560, 1073741824, 0, 917561, 1073741824, 0, 917562, 1073741824, 0, 917563, 1073741824, 0, 917564, 1073741824, 0, 917565, 1073741824, 0, 917566, 1073741824, 0, 917567, 1073741824, 0, 917568, 1073741824, 0, 917569, 1073741824, 0, 917570, 1073741824, 0, 917571, 1073741824, 0, 917572, 1073741824, 0, 917573, 1073741824, 0, 917574, 1073741824, 0, 917575, 1073741824, 0, 917576, 1073741824, 0, 917577, 1073741824, 0, 917578, 1073741824, 0, 917579, 1, 0, 917602, 1, 0, 917603, 0, 0, 917604, 1073741824, 0, 917605, 1073741824, 0, 917606, 1073741824, 0, 917607, 1073741824, 0, 917608, 1073741824, 0, 917609, 1073741824, 0, 917610, 1073741824, 0, 917611, 1073741824, 0, 917612, 1073741824, 0, 917613, 1073741824, 0, 917614, 1073741824, 0, 917615, 1073741824, 0, 917616, 1073741824, 0, 917617, 1073741824, 0, 917618, 1073741824, 0, 917619, 1073741824, 0, 917620, 1073741824, 0, 917621, 1073741824, 0, 917622, 1073741824, 0, 917623, 1073741824, 0, 917624, 1073741824, 0, 917625, 1073741824, 0, 917626, 1073741824, 0, 917627, 1073741824, 0, 917628, 1073741824, 0, 917629, 1073741824, 0, 917630, 1073741824, 0, 917631, 1073741824, 0, 917632, 1073741824, 0, 917633, 1073741824, 0, 1048544, 1073741824, 0, 1048545, 1073741824, 0, 1048546, 1073741824, 0, 1048547, 1073741824, 0, 1048548, 1073741824, 0, 1048549, 1073741824, 0, 1048550, 1073741824, 0, 1048551, 1073741824, 0, 1048552, 1073741824, 0, 1048553, 1073741824, 0, 1048554, 1073741824, 0, 1048555, 1073741824, 0, 1048556, 1073741824, 0, 1048557, 1073741824, 0, 1048558, 1073741824, 0, 1048559, 1073741824, 0, 1048560, 1073741824, 0, 1048561, 1073741824, 0, 1048562, 1073741824, 0, 1048563, 1073741824, 0, 1048564, 1073741824, 0, 1048565, 1073741824, 0, 1048566, 1073741824, 0, 1048567, 1073741824, 0, 1048568, 1073741824, 0, 1048569, 1073741824, 0, 1048570, 1073741824, 0, 1048571, 1073741824, 0, 1048572, 1073741824, 0, 1048573, 1073741824, 0, 1048574, 1073741824, 0, 1048575, 1073741824, 0, 983040, 1073741824, 0, 983041, 1073741824, 0, 983042, 1073741824, 0, 983043, 1073741824, 0, 983044, 1073741824, 0, 983045, 1073741824, 0, 983046, 1073741824, 0, 983047, 1073741824, 0, 983048, 1073741824, 0, 983049, 1073741824, 0, 983050, 1073741824, 0, 983051, 1073741824, 0, 983052, 1073741824, 0, 983053, 1073741824, 0, 983054, 1073741824, 0, 983055, 1073741824, 0, 983056, 1073741824, 0, 983057, 1073741824, 0, 983058, 1073741824, 0, 983059, 1073741824, 0, 983060, 1073741824, 0, 983061, 1073741824, 0, 983062, 1073741824, 0, 983063, 1073741824, 0, 983064, 1073741824, 0, 983065, 1073741824, 0, 983066, 1073741824, 0, 983067, 1073741824, 0, 983068, 1073741824, 0, 983069, 1073741824, 0, 983070, 1, 0, 983088, 1, 0, 983089, 1073741824, 0, 983090, 1073741824, 0, 983091, 1073741824, 0, 983092, 1073741824, 0, 983093, 1073741824, 0, 983094, 1073741824, 0, 983095, 1073741824, 0, 983096, 1073741824, 0, 983097, 1073741824, 0, 983098, 1073741824, 0, 983099, 1073741824, 0, 983100, 1073741824, 0, 983101, 1073741824, 0, 983102, 1073741824, 0, 983103, 1073741824, 0, 983104, 1073741824, 0, 983105, 1073741824, 0, 983106, 1073741824, 0, 983107, 1073741824, 0, 983108, 1073741824, 0, 983109, 1073741824, 0, 983110, 1073741824, 0, 983111, 1073741824, 0, 983112, 1073741824, 0, 983113, 1073741824, 0, 983114, 1073741824, 0, 983115, 1, 0, 983138, 1, 0, 983139, 0, 0, 983140, 1073741824, 0, 983141, 1073741824, 0, 983142, 1073741824, 0, 983143, 1073741824, 0, 983144, 1073741824, 0, 983145, 1073741824, 0, 983146, 1073741824, 0, 983147, 1073741824, 0, 983148, 1073741824, 0, 983149, 1073741824, 0, 983150, 1073741824, 0, 983151, 1073741824, 0, 983152, 1073741824, 0, 983153, 1073741824, 0, 983154, 1073741824, 0, 983155, 1073741824, 0, 983156, 1073741824, 0, 983157, 1073741824, 0, 983158, 1073741824, 0, 983159, 1073741824, 0, 983160, 1073741824, 0, 983161, 1073741824, 0, 983162, 1073741824, 0, 983163, 1073741824, 0, 983164, 1073741824, 0, 983165, 1073741824, 0, 983166, 1073741824, 0, 983167, 1073741824, 0, 983168, 1073741824, 0, 983169, 1073741824, 0, 1114080, 1073741824, 0, 1114081, 1073741824, 0, 1114082, 1073741824, 0, 1114083, 1073741824, 0, 1114084, 1073741824, 0, 1114085, 1073741824, 0, 1114086, 1073741824, 0, 1114087, 1073741824, 0, 1114088, 1073741824, 0, 1114089, 1073741824, 0, 1114090, 1073741824, 0, 1114091, 1073741824, 0, 1114092, 1073741824, 0, 1114093, 1073741824, 0, 1114094, 1073741824, 0, 1114095, 1073741824, 0, 1114096, 1073741824, 0, 1114097, 1073741824, 0, 1114098, 1073741824, 0, 1114099, 1073741824, 0, 1114100, 1073741824, 0, 1114101, 1073741824, 0, 1114102, 1073741824, 0, 1114103, 1073741824, 0, 1114104, 1073741824, 0, 1114105, 1073741824, 0, 1114106, 1073741824, 0, 1114107, 1073741824, 0, 1114108, 1073741824, 0, 1114109, 1073741824, 0, 1114110, 1073741824, 0, 1114111, 1073741824, 0, 1048576, 1073741824, 0, 1048577, 1073741824, 0, 1048578, 1073741824, 0, 1048579, 1073741824, 0, 1048580, 1073741824, 0, 1048581, 1073741824, 0, 1048582, 1073741824, 0, 1048583, 1073741824, 0, 1048584, 1073741824, 0, 1048585, 1073741824, 0, 1048586, 1073741824, 0, 1048587, 1073741824, 0, 1048588, 1073741824, 0, 1048589, 1073741824, 0, 1048590, 1073741824, 0, 1048591, 1073741824, 0, 1048592, 1073741824, 0, 1048593, 1073741824, 0, 1048594, 1073741824, 0, 1048595, 1073741824, 0, 1048596, 1073741824, 0, 1048597, 1073741824, 0, 1048598, 1073741824, 0, 1048599, 1073741824, 0, 1048600, 1073741824, 0, 1048601, 1073741824, 0, 1048602, 1073741824, 0, 1048603, 1073741824, 0, 1048604, 1073741824, 0, 1048605, 1073741824, 0, 1048606, 1, 0, 1048624, 1, 0, 1048625, 1073741824, 0, 1048626, 1073741824, 0, 1048627, 1073741824, 0, 1048628, 1073741824, 0, 1048629, 1073741824, 0, 1048630, 1073741824, 0, 1048631, 1073741824, 0, 1048632, 1073741824, 0, 1048633, 1073741824, 0, 1048634, 1073741824, 0, 1048635, 1073741824, 0, 1048636, 1073741824, 0, 1048637, 1073741824, 0, 1048638, 1073741824, 0, 1048639, 1073741824, 0, 1048640, 1073741824, 0, 1048641, 1073741824, 0, 1048642, 1073741824, 0, 1048643, 1073741824, 0, 1048644, 1073741824, 0, 1048645, 1073741824, 0, 1048646, 1073741824, 0, 1048647, 1073741824, 0, 1048648, 1073741824, 0, 1048649, 1073741824, 0, 1048650, 1073741824, 0, 1048651, 1, 0, 1048674, 1, 0, 1048675, 0, 0, 1048676, 0, 0, 1048677, 1073741824, 0, 1048678, 1073741824, 0, 1048679, 1073741824, 0, 1048680, 1073741824, 0, 1048681, 1073741824, 0, 1048682, 1073741824, 0, 1048683, 1073741824, 0, 1048684, 1073741824, 0, 1048685, 1073741824, 0, 1048686, 1073741824, 0, 1048687, 1073741824, 0, 1048688, 1073741824, 0, 1048689, 1073741824, 0, 1048690, 1073741824, 0, 1048691, 1073741824, 0, 1048692, 1073741824, 0, 1048693, 1073741824, 0, 1048694, 1073741824, 0, 1048695, 1073741824, 0, 1048696, 1073741824, 0, 1048697, 1073741824, 0, 1048698, 1073741824, 0, 1048699, 1073741824, 0, 1048700, 1073741824, 0, 1048701, 1073741824, 0, 1048702, 1073741824, 0, 1048703, 1073741824, 0, 1048704, 1073741824, 0, 1048705, 1073741824, 0, 1179616, 1073741824, 0, 1179617, 1073741824, 0, 1179618, 1073741824, 0, 1179619, 1073741824, 0, 1179620, 1073741824, 0, 1179621, 1073741824, 0, 1179622, 1073741824, 0, 1179623, 1073741824, 0, 1179624, 1073741824, 0, 1179625, 1073741824, 0, 1179626, 1073741824, 0, 1179627, 1073741824, 0, 1179628, 1073741824, 0, 1179629, 1073741824, 0, 1179630, 1073741824, 0, 1179631, 1073741824, 0, 1179632, 1073741824, 0, 1179633, 1073741824, 0, 1179634, 1073741824, 0, 1179635, 1073741824, 0, 1179636, 1073741824, 0, 1179637, 1073741824, 0, 1179638, 1073741824, 0, 1179639, 1073741824, 0, 1179640, 1073741824, 0, 1179641, 1073741824, 0, 1179642, 1073741824, 0, 1179643, 1073741824, 0, 1179644, 1073741824, 0, 1179645, 1073741824, 0, 1179646, 1073741824, 0, 1179647, 1073741824, 0, 1114112, 1073741824, 0, 1114113, 1073741824, 0, 1114114, 1073741824, 0, 1114115, 1073741824, 0, 1114116, 1073741824, 0, 1114117, 1073741824, 0, 1114118, 1073741824, 0, 1114119, 1073741824, 0, 1114120, 1073741824, 0, 1114121, 1073741824, 0, 1114122, 1073741824, 0, 1114123, 1073741824, 0, 1114124, 1073741824, 0, 1114125, 1073741824, 0, 1114126, 1073741824, 0, 1114127, 1073741824, 0, 1114128, 1073741824, 0, 1114129, 1073741824, 0, 1114130, 1073741824, 0, 1114131, 1073741824, 0, 1114132, 1073741824, 0, 1114133, 1073741824, 0, 1114134, 1073741824, 0, 1114135, 1073741824, 0, 1114136, 1073741824, 0, 1114137, 1073741824, 0, 1114138, 1073741824, 0, 1114139, 1073741824, 0, 1114140, 1073741824, 0, 1114141, 1073741824, 0, 1114142, 1, 0, 1114143, 1, 0, 1114144, 1, 0, 1114145, 1, 0, 1114146, 1, 0, 1114147, 1, 0, 1114148, 1, 0, 1114149, 1, 0, 1114150, 1, 0, 1114151, 1, 0, 1114152, 1, 0, 1114153, 1, 0, 1114154, 1, 0, 1114155, 1, 0, 1114156, 1, 0, 1114157, 1, 0, 1114158, 1, 0, 1114159, 1, 0, 1114160, 1, 0, 1114161, 1073741824, 0, 1114162, 1073741824, 0, 1114163, 1073741824, 0, 1114164, 1073741824, 0, 1114165, 1073741824, 0, 1114166, 1073741824, 0, 1114167, 1073741824, 0, 1114168, 1073741824, 0, 1114169, 1073741824, 0, 1114170, 1073741824, 0, 1114171, 1073741824, 0, 1114172, 1073741824, 0, 1114173, 1073741824, 0, 1114174, 1073741824, 0, 1114175, 1073741824, 0, 1114176, 1073741824, 0, 1114177, 1073741824, 0, 1114178, 1073741824, 0, 1114179, 1073741824, 0, 1114180, 1073741824, 0, 1114181, 1073741824, 0, 1114182, 1073741824, 0, 1114183, 1073741824, 0, 1114184, 1073741824, 0, 1114185, 1073741824, 0, 1114186, 1073741824, 0, 1114187, 1, 0, 1114210, 1, 0, 1114211, 0, 0, 1114212, 0, 0, 1114213, 1073741824, 0, 1114214, 1073741824, 0, 1114215, 1073741824, 0, 1114216, 1073741824, 0, 1114217, 1073741824, 0, 1114218, 1073741824, 0, 1114219, 1073741824, 0, 1114220, 1073741824, 0, 1114221, 1073741824, 0, 1114222, 1073741824, 0, 1114223, 1073741824, 0, 1114224, 1073741824, 0, 1114225, 1073741824, 0, 1114226, 1073741824, 0, 1114227, 1073741824, 0, 1114228, 1073741824, 0, 1114229, 1073741824, 0, 1114230, 1073741824, 0, 1114231, 1073741824, 0, 1114232, 1073741824, 0, 1114233, 1073741824, 0, 1114234, 1073741824, 0, 1114235, 1073741824, 0, 1114236, 1073741824, 0, 1114237, 1073741824, 0, 1114238, 1073741824, 0, 1114239, 1073741824, 0, 1114240, 1073741824, 0, 1114241, 1073741824, 0, 1245152, 1073741824, 0, 1245153, 1073741824, 0, 1245154, 1073741824, 0, 1245155, 1073741824, 0, 1245156, 1073741824, 0, 1245157, 1073741824, 0, 1245158, 1073741824, 0, 1245159, 1073741824, 0, 1245160, 1073741824, 0, 1245161, 1073741824, 0, 1245162, 1073741824, 0, 1245163, 1073741824, 0, 1245164, 1073741824, 0, 1245165, 1073741824, 0, 1245166, 1073741824, 0, 1245167, 1073741824, 0, 1245168, 1073741824, 0, 1245169, 1073741824, 0, 1245170, 1073741824, 0, 1245171, 1073741824, 0, 1245172, 1073741824, 0, 1245173, 1073741824, 0, 1245174, 1073741824, 0, 1245175, 1073741824, 0, 1245176, 1073741824, 0, 1245177, 1073741824, 0, 1245178, 1073741824, 0, 1245179, 1073741824, 0, 1245180, 1073741824, 0, 1245181, 1073741824, 0, 1245182, 1073741824, 0, 1245183, 1073741824, 0, 1179648, 1073741824, 0, 1179649, 1073741824, 0, 1179650, 1073741824, 0, 1179651, 1073741824, 0, 1179652, 1073741824, 0, 1179653, 1073741824, 0, 1179654, 1073741824, 0, 1179655, 1073741824, 0, 1179656, 1073741824, 0, 1179657, 1073741824, 0, 1179658, 1073741824, 0, 1179659, 1073741824, 0, 1179660, 1073741824, 0, 1179661, 1073741824, 0, 1179662, 1073741824, 0, 1179663, 1073741824, 0, 1179664, 1073741824, 0, 1179665, 1073741824, 0, 1179666, 1073741824, 0, 1179667, 1073741824, 0, 1179668, 1073741824, 0, 1179669, 1073741824, 0, 1179670, 1073741824, 0, 1179671, 1073741824, 0, 1179672, 1073741824, 0, 1179673, 1073741824, 0, 1179674, 1073741824, 0, 1179675, 1073741824, 0, 1179676, 1073741824, 0, 1179677, 1073741824, 0, 1179678, 1073741824, 0, 1179679, 1073741824, 0, 1179680, 1073741824, 0, 1179681, 1073741824, 0, 1179682, 1073741824, 0, 1179683, 1073741824, 0, 1179684, 1073741824, 0, 1179685, 1073741824, 0, 1179686, 1073741824, 0, 1179687, 1073741824, 0, 1179688, 1073741824, 0, 1179689, 1073741824, 0, 1179690, 1073741824, 0, 1179691, 1073741824, 0, 1179692, 1073741824, 0, 1179693, 1073741824, 0, 1179694, 1073741824, 0, 1179695, 1073741824, 0, 1179696, 1073741824, 0, 1179697, 1073741824, 0, 1179698, 1073741824, 0, 1179699, 1073741824, 0, 1179700, 1073741824, 0, 1179701, 1073741824, 0, 1179702, 1073741824, 0, 1179703, 1073741824, 0, 1179704, 1073741824, 0, 1179705, 1073741824, 0, 1179706, 1073741824, 0, 1179707, 1073741824, 0, 1179708, 1073741824, 0, 1179709, 1073741824, 0, 1179710, 1073741824, 0, 1179711, 1073741824, 0, 1179712, 1073741824, 0, 1179713, 1073741824, 0, 1179714, 1073741824, 0, 1179715, 1073741824, 0, 1179716, 1073741824, 0, 1179717, 1073741824, 0, 1179718, 1073741824, 0, 1179719, 1073741824, 0, 1179720, 1073741824, 0, 1179721, 1073741824, 0, 1179722, 1073741824, 0, 1179723, 1, 0, 1179746, 1, 0, 1179747, 1073741824, 0, 1179748, 1073741824, 0, 1179749, 1073741824, 0, 1179750, 1073741824, 0, 1179751, 1073741824, 0, 1179752, 1073741824, 0, 1179753, 1073741824, 0, 1179754, 1073741824, 0, 1179755, 1073741824, 0, 1179756, 1073741824, 0, 1179757, 1073741824, 0, 1179758, 1073741824, 0, 1179759, 1073741824, 0, 1179760, 1073741824, 0, 1179761, 1073741824, 0, 1179762, 1073741824, 0, 1179763, 1073741824, 0, 1179764, 1073741824, 0, 1179765, 1073741824, 0, 1179766, 1073741824, 0, 1179767, 1073741824, 0, 1179768, 1073741824, 0, 1179769, 1073741824, 0, 1179770, 1073741824, 0, 1179771, 1073741824, 0, 1179772, 1073741824, 0, 1179773, 1073741824, 0, 1179774, 1073741824, 0, 1179775, 1073741824, 0, 1179776, 1073741824, 0, 1179777, 1073741824, 0, 1310688, 1073741824, 0, 1310689, 1073741824, 0, 1310690, 1073741824, 0, 1310691, 1073741824, 0, 1310692, 1073741824, 0, 1310693, 1073741824, 0, 1310694, 1073741824, 0, 1310695, 1073741824, 0, 1310696, 1073741824, 0, 1310697, 1073741824, 0, 1310698, 1073741824, 0, 1310699, 1073741824, 0, 1310700, 1073741824, 0, 1310701, 1073741824, 0, 1310702, 1073741824, 0, 1310703, 1073741824, 0, 1310704, 1073741824, 0, 1310705, 1073741824, 0, 1310706, 1073741824, 0, 1310707, 1073741824, 0, 1310708, 1073741824, 0, 1310709, 1073741824, 0, 1310710, 1073741824, 0, 1310711, 1073741824, 0, 1310712, 1073741824, 0, 1310713, 1073741824, 0, 1310714, 1073741824, 0, 1310715, 1073741824, 0, 1310716, 1073741824, 0, 1310717, 1073741824, 0, 1310718, 1073741824, 0, 1310719, 1073741824, 0, 1245184, 1073741824, 0, 1245185, 1073741824, 0, 1245186, 1073741824, 0, 1245187, 1073741824, 0, 1245188, 1073741824, 0, 1245189, 1073741824, 0, 1245190, 1073741824, 0, 1245191, 1073741824, 0, 1245192, 1073741824, 0, 1245193, 1073741824, 0, 1245194, 1073741824, 0, 1245195, 1073741824, 0, 1245196, 1073741824, 0, 1245197, 1073741824, 0, 1245198, 1073741824, 0, 1245199, 1073741824, 0, 1245200, 1073741824, 0, 1245201, 1073741824, 0, 1245202, 1073741824, 0, 1245203, 1073741824, 0, 1245204, 1073741824, 0, 1245205, 1073741824, 0, 1245206, 1073741824, 0, 1245207, 1073741824, 0, 1245208, 1073741824, 0, 1245209, 1073741824, 0, 1245210, 1073741824, 0, 1245211, 1073741824, 0, 1245212, 1073741824, 0, 1245213, 1073741824, 0, 1245214, 1073741824, 0, 1245215, 1073741824, 0, 1245216, 1073741824, 0, 1245217, 1073741824, 0, 1245218, 1073741824, 0, 1245219, 1073741824, 0, 1245220, 1073741824, 0, 1245221, 1073741824, 0, 1245222, 1073741824, 0, 1245223, 1073741824, 0, 1245224, 1073741824, 0, 1245225, 1073741824, 0, 1245226, 1073741824, 0, 1245227, 1073741824, 0, 1245228, 1073741824, 0, 1245229, 1073741824, 0, 1245230, 1073741824, 0, 1245231, 1073741824, 0, 1245232, 1073741824, 0, 1245233, 1073741824, 0, 1245234, 1073741824, 0, 1245235, 1073741824, 0, 1245236, 1073741824, 0, 1245237, 1073741824, 0, 1245238, 1073741824, 0, 1245239, 1073741824, 0, 1245240, 1073741824, 0, 1245241, 1073741824, 0, 1245242, 1073741824, 0, 1245243, 1073741824, 0, 1245244, 1073741824, 0, 1245245, 1073741824, 0, 1245246, 1073741824, 0, 1245247, 1073741824, 0, 1245248, 1073741824, 0, 1245249, 1073741824, 0, 1245250, 1073741824, 0, 1245251, 1073741824, 0, 1245252, 1073741824, 0, 1245253, 1073741824, 0, 1245254, 1073741824, 0, 1245255, 1073741824, 0, 1245256, 1073741824, 0, 1245257, 1073741824, 0, 1245258, 1073741824, 0, 1245259, 1, 0, 1245282, 1, 0, 1245283, 1073741824, 0, 1245284, 1073741824, 0, 1245285, 1073741824, 0, 1245286, 1073741824, 0, 1245287, 1073741824, 0, 1245288, 1073741824, 0, 1245289, 1073741824, 0, 1245290, 1073741824, 0, 1245291, 1073741824, 0, 1245292, 1073741824, 0, 1245293, 1073741824, 0, 1245294, 1073741824, 0, 1245295, 1073741824, 0, 1245296, 1073741824, 0, 1245297, 1073741824, 0, 1245298, 1073741824, 0, 1245299, 1073741824, 0, 1245300, 1073741824, 0, 1245301, 1073741824, 0, 1245302, 1073741824, 0, 1245303, 1073741824, 0, 1245304, 1073741824, 0, 1245305, 1073741824, 0, 1245306, 1073741824, 0, 1245307, 1073741824, 0, 1245308, 1073741824, 0, 1245309, 1073741824, 0, 1245310, 1073741824, 0, 1245311, 1073741824, 0, 1245312, 1073741824, 0, 1245313, 1073741824, 0, 1376224, 1073741824, 0, 1376225, 1073741824, 0, 1376226, 1073741824, 0, 1376227, 1073741824, 0, 1376228, 1073741824, 0, 1376229, 1073741824, 0, 1376230, 1073741824, 0, 1376231, 1073741824, 0, 1376232, 1073741824, 0, 1376233, 1073741824, 0, 1376234, 1073741824, 0, 1376235, 1073741824, 0, 1376236, 1073741824, 0, 1376237, 1073741824, 0, 1376238, 1073741824, 0, 1376239, 1073741824, 0, 1376240, 1073741824, 0, 1376241, 1073741824, 0, 1376242, 1073741824, 0, 1376243, 1073741824, 0, 1376244, 1073741824, 0, 1376245, 1073741824, 0, 1376246, 1073741824, 0, 1376247, 1073741824, 0, 1376248, 1073741824, 0, 1376249, 1073741824, 0, 1376250, 1073741824, 0, 1376251, 1073741824, 0, 1376252, 1073741824, 0, 1376253, 1073741824, 0, 1376254, 1073741824, 0, 1376255, 1073741824, 0, 1310720, 1073741824, 0, 1310721, 1073741824, 0, 1310722, 1073741824, 0, 1310723, 1073741824, 0, 1310724, 1073741824, 0, 1310725, 1073741824, 0, 1310726, 1073741824, 0, 1310727, 1073741824, 0, 1310728, 1073741824, 0, 1310729, 1073741824, 0, 1310730, 1073741824, 0, 1310731, 1073741824, 0, 1310732, 1073741824, 0, 1310733, 1073741824, 0, 1310734, 1073741824, 0, 1310735, 1073741824, 0, 1310736, 1073741824, 0, 1310737, 1073741824, 0, 1310738, 1073741824, 0, 1310739, 1073741824, 0, 1310740, 1073741824, 0, 1310741, 1073741824, 0, 1310742, 1073741824, 0, 1310743, 1073741824, 0, 1310744, 1073741824, 0, 1310745, 1073741824, 0, 1310746, 1073741824, 0, 1310747, 1073741824, 0, 1310748, 1073741824, 0, 1310749, 1073741824, 0, 1310750, 1073741824, 0, 1310751, 1073741824, 0, 1310752, 1073741824, 0, 1310753, 1073741824, 0, 1310754, 1073741824, 0, 1310755, 1073741824, 0, 1310756, 1073741824, 0, 1310757, 1073741824, 0, 1310758, 1073741824, 0, 1310759, 1073741824, 0, 1310760, 1073741824, 0, 1310761, 1073741824, 0, 1310762, 1073741824, 0, 1310763, 1073741824, 0, 1310764, 1073741824, 0, 1310765, 1073741824, 0, 1310766, 1073741824, 0, 1310767, 1073741824, 0, 1310768, 1073741824, 0, 1310769, 1073741824, 0, 1310770, 1073741824, 0, 1310771, 1073741824, 0, 1310772, 1073741824, 0, 1310773, 1073741824, 0, 1310774, 1073741824, 0, 1310775, 1073741824, 0, 1310776, 1073741824, 0, 1310777, 1073741824, 0, 1310778, 1073741824, 0, 1310779, 1073741824, 0, 1310780, 1073741824, 0, 1310781, 1073741824, 0, 1310782, 1073741824, 0, 1310783, 1073741824, 0, 1310784, 1073741824, 0, 1310785, 1073741824, 0, 1310786, 1073741824, 0, 1310787, 1073741824, 0, 1310788, 1073741824, 0, 1310789, 1073741824, 0, 1310790, 1073741824, 0, 1310791, 1073741824, 0, 1310792, 1073741824, 0, 1310793, 1073741824, 0, 1310794, 1073741824, 0, 1310795, 1, 0, 1310818, 1, 0, 1310819, 1073741824, 0, 1310820, 1073741824, 0, 1310821, 1073741824, 0, 1310822, 1073741824, 0, 1310823, 1073741824, 0, 1310824, 1073741824, 0, 1310825, 1073741824, 0, 1310826, 1073741824, 0, 1310827, 1073741824, 0, 1310828, 1073741824, 0, 1310829, 1073741824, 0, 1310830, 1073741824, 0, 1310831, 1073741824, 0, 1310832, 1073741824, 0, 1310833, 1073741824, 0, 1310834, 1073741824, 0, 1310835, 1073741824, 0, 1310836, 1073741824, 0, 1310837, 1073741824, 0, 1310838, 1073741824, 0, 1310839, 1073741824, 0, 1310840, 1073741824, 0, 1310841, 1073741824, 0, 1310842, 1073741824, 0, 1310843, 1073741824, 0, 1310844, 1073741824, 0, 1310845, 1073741824, 0, 1310846, 1073741824, 0, 1310847, 1073741824, 0, 1310848, 1073741824, 0, 1310849, 1073741824, 0, 1441760, 1073741824, 0, 1441761, 1073741824, 0, 1441762, 1073741824, 0, 1441763, 1073741824, 0, 1441764, 1073741824, 0, 1441765, 1073741824, 0, 1441766, 1073741824, 0, 1441767, 1073741824, 0, 1441768, 1073741824, 0, 1441769, 1073741824, 0, 1441770, 1073741824, 0, 1441771, 1073741824, 0, 1441772, 1073741824, 0, 1441773, 1073741824, 0, 1441774, 1073741824, 0, 1441775, 1073741824, 0, 1441776, 1073741824, 0, 1441777, 1073741824, 0, 1441778, 1073741824, 0, 1441779, 1073741824, 0, 1441780, 1073741824, 0, 1441781, 1073741824, 0, 1441782, 1073741824, 0, 1441783, 1073741824, 0, 1441784, 1073741824, 0, 1441785, 1073741824, 0, 1441786, 1073741824, 0, 1441787, 1073741824, 0, 1441788, 1073741824, 0, 1441789, 1073741824, 0, 1441790, 1073741824, 0, 1441791, 1073741824, 0, 1376256, 1073741824, 0, 1376257, 1073741824, 0, 1376258, 1073741824, 0, 1376259, 1073741824, 0, 1376260, 1073741824, 0, 1376261, 1073741824, 0, 1376262, 1073741824, 0, 1376263, 1073741824, 0, 1376264, 1073741824, 0, 1376265, 1073741824, 0, 1376266, 1073741824, 0, 1376267, 1073741824, 0, 1376268, 1073741824, 0, 1376269, 1073741824, 0, 1376270, 1073741824, 0, 1376271, 1073741824, 0, 1376272, 1073741824, 0, 1376273, 1073741824, 0, 1376274, 1073741824, 0, 1376275, 1073741824, 0, 1376276, 1073741824, 0, 1376277, 1073741824, 0, 1376278, 1073741824, 0, 1376279, 1073741824, 0, 1376280, 1073741824, 0, 1376281, 1073741824, 0, 1376282, 1073741824, 0, 1376283, 1073741824, 0, 1376284, 1073741824, 0, 1376285, 1073741824, 0, 1376286, 1073741824, 0, 1376287, 1073741824, 0, 1376288, 1073741824, 0, 1376289, 1073741824, 0, 1376290, 1073741824, 0, 1376291, 1073741824, 0, 1376292, 1073741824, 0, 1376293, 1073741824, 0, 1376294, 1073741824, 0, 1376295, 1073741824, 0, 1376296, 1073741824, 0, 1376297, 1073741824, 0, 1376298, 1073741824, 0, 1376299, 1073741824, 0, 1376300, 1073741824, 0, 1376301, 1073741824, 0, 1376302, 1073741824, 0, 1376303, 1073741824, 0, 1376304, 1073741824, 0, 1376305, 1073741824, 0, 1376306, 1073741824, 0, 1376307, 1073741824, 0, 1376308, 1073741824, 0, 1376309, 1073741824, 0, 1376310, 1073741824, 0, 1376311, 1073741824, 0, 1376312, 1073741824, 0, 1376313, 1073741824, 0, 1376314, 1073741824, 0, 1376315, 1073741824, 0, 1376316, 1073741824, 0, 1376317, 1073741824, 0, 1376318, 1073741824, 0, 1376319, 1073741824, 0, 1376320, 1073741824, 0, 1376321, 1073741824, 0, 1376322, 1073741824, 0, 1376323, 1073741824, 0, 1376324, 1073741824, 0, 1376325, 1073741824, 0, 1376326, 1073741824, 0, 1376327, 1073741824, 0, 1376328, 1073741824, 0, 1376329, 1073741824, 0, 1376330, 1073741824, 0, 1376331, 1, 0, 1376332, 1, 0, 1376333, 1, 0, 1376334, 1, 0, 1376335, 1, 0, 1376336, 1, 0, 1376337, 1, 0, 1376338, 1, 0, 1376339, 1, 0, 1376340, 1, 0, 1376341, 1, 0, 1376342, 1, 0, 1376343, 1, 0, 1376344, 1, 0, 1376345, 1, 0, 1376346, 1, 0, 1376347, 1, 0, 1376348, 1, 0, 1376349, 1, 0, 1376350, 1, 0, 1376351, 1, 0, 1376352, 1, 0, 1376353, 1, 0, 1376354, 1, 0, 1376355, 1073741824, 0, 1376356, 1073741824, 0, 1376357, 1073741824, 0, 1376358, 1073741824, 0, 1376359, 1073741824, 0, 1376360, 1073741824, 0, 1376361, 1073741824, 0, 1376362, 1073741824, 0, 1376363, 1073741824, 0, 1376364, 1073741824, 0, 1376365, 1073741824, 0, 1376366, 1073741824, 0, 1376367, 1073741824, 0, 1376368, 1073741824, 0, 1376369, 1073741824, 0, 1376370, 1073741824, 0, 1376371, 1073741824, 0, 1376372, 1073741824, 0, 1376373, 1073741824, 0, 1376374, 1073741824, 0, 1376375, 1073741824, 0, 1376376, 1073741824, 0, 1376377, 1073741824, 0, 1376378, 1073741824, 0, 1376379, 1073741824, 0, 1376380, 1073741824, 0, 1376381, 1073741824, 0, 1376382, 1073741824, 0, 1376383, 1073741824, 0, 1376384, 1073741824, 0, 1376385, 1073741824, 0, 1507296, 1073741824, 0, 1507297, 1073741824, 0, 1507298, 1073741824, 0, 1507299, 1073741824, 0, 1507300, 1073741824, 0, 1507301, 1073741824, 0, 1507302, 1073741824, 0, 1507303, 1073741824, 0, 1507304, 1073741824, 0, 1507305, 1073741824, 0, 1507306, 1073741824, 0, 1507307, 1073741824, 0, 1507308, 1073741824, 0, 1507309, 1073741824, 0, 1507310, 1073741824, 0, 1507311, 1073741824, 0, 1507312, 1073741824, 0, 1507313, 1073741824, 0, 1507314, 1073741824, 0, 1507315, 1073741824, 0, 1507316, 1073741824, 0, 1507317, 1073741824, 0, 1507318, 1073741824, 0, 1507319, 1073741824, 0, 1507320, 1073741824, 0, 1507321, 1073741824, 0, 1507322, 1073741824, 0, 1507323, 1073741824, 0, 1507324, 1073741824, 0, 1507325, 1073741824, 0, 1507326, 1073741824, 0, 1507327, 1073741824, 0, 1441792, 1073741824, 0, 1441793, 1073741824, 0, 1441794, 1073741824, 0, 1441795, 1073741824, 0, 1441796, 1073741824, 0, 1441797, 1073741824, 0, 1441798, 1073741824, 0, 1441799, 1073741824, 0, 1441800, 1073741824, 0, 1441801, 1073741824, 0, 1441802, 1073741824, 0, 1441803, 1073741824, 0, 1441804, 1073741824, 0, 1441805, 1073741824, 0, 1441806, 1073741824, 0, 1441807, 1073741824, 0, 1441808, 1073741824, 0, 1441809, 1073741824, 0, 1441810, 1073741824, 0, 1441811, 1073741824, 0, 1441812, 1073741824, 0, 1441813, 1073741824, 0, 1441814, 1073741824, 0, 1441815, 1073741824, 0, 1441816, 1073741824, 0, 1441817, 1073741824, 0, 1441818, 1073741824, 0, 1441819, 1073741824, 0, 1441820, 1073741824, 0, 1441821, 1073741824, 0, 1441822, 1073741824, 0, 1441823, 1073741824, 0, 1441824, 1073741824, 0, 1441825, 1073741824, 0, 1441826, 1073741824, 0, 1441827, 1073741824, 0, 1441828, 1073741824, 0, 1441829, 1073741824, 0, 1441830, 1073741824, 0, 1441831, 1073741824, 0, 1441832, 1073741824, 0, 1441833, 1073741824, 0, 1441834, 1073741824, 0, 1441835, 1073741824, 0, 1441836, 1073741824, 0, 1441837, 1073741824, 0, 1441838, 1073741824, 0, 1441839, 1073741824, 0, 1441840, 1073741824, 0, 1441841, 1073741824, 0, 1441842, 1073741824, 0, 1441843, 1073741824, 0, 1441844, 1073741824, 0, 1441845, 1073741824, 0, 1441846, 1073741824, 0, 1441847, 1073741824, 0, 1441848, 1073741824, 0, 1441849, 1073741824, 0, 1441850, 1073741824, 0, 1441851, 1073741824, 0, 1441852, 1073741824, 0, 1441853, 1073741824, 0, 1441854, 1073741824, 0, 1441855, 1073741824, 0, 1441856, 1073741824, 0, 1441857, 1073741824, 0, 1441858, 1073741824, 0, 1441859, 1073741824, 0, 1441860, 1073741824, 0, 1441861, 1073741824, 0, 1441862, 1073741824, 0, 1441863, 1073741824, 0, 1441864, 1073741824, 0, 1441865, 1073741824, 0, 1441866, 1073741824, 0, 1441867, 1073741824, 0, 1441868, 1073741824, 0, 1441869, 1073741824, 0, 1441870, 1073741824, 0, 1441871, 1073741824, 0, 1441872, 1073741824, 0, 1441873, 1073741824, 0, 1441874, 1073741824, 0, 1441875, 1073741824, 0, 1441876, 1073741824, 0, 1441877, 1073741824, 0, 1441878, 1073741824, 0, 1441879, 1073741824, 0, 1441880, 1073741824, 0, 1441881, 1073741824, 0, 1441882, 1073741824, 0, 1441883, 1073741824, 0, 1441884, 1073741824, 0, 1441885, 1073741824, 0, 1441886, 1073741824, 0, 1441887, 1073741824, 0, 1441888, 1073741824, 0, 1441889, 1073741824, 0, 1441890, 1073741824, 0, 1441891, 1073741824, 0, 1441892, 1073741824, 0, 1441893, 1073741824, 0, 1441894, 1073741824, 0, 1441895, 1073741824, 0, 1441896, 1073741824, 0, 1441897, 1073741824, 0, 1441898, 1073741824, 0, 1441899, 1073741824, 0, 1441900, 1073741824, 0, 1441901, 1073741824, 0, 1441902, 1073741824, 0, 1441903, 1073741824, 0, 1441904, 1073741824, 0, 1441905, 1073741824, 0, 1441906, 1073741824, 0, 1441907, 1073741824, 0, 1441908, 1073741824, 0, 1441909, 1073741824, 0, 1441910, 1073741824, 0, 1441911, 1073741824, 0, 1441912, 1073741824, 0, 1441913, 1073741824, 0, 1441914, 1073741824, 0, 1441915, 1073741824, 0, 1441916, 1073741824, 0, 1441917, 1073741824, 0, 1441918, 1073741824, 0, 1441919, 1073741824, 0, 1441920, 1073741824, 0, 1441921, 1073741824, 0 )
__meta__ = {
"_edit_lock_": true
}

[node name="Text" type="CanvasLayer" parent="."]
layer = 100
follow_viewport_enable = true

[node name="BindingTextReplacer" type="Node" parent="Text"]
script = ExtResource( 1 )
formatString = "[wave]"

[node name="LabelDash" type="RichTextLabel" parent="Text/BindingTextReplacer"]
margin_left = 128.0
margin_top = 464.0
margin_right = 896.0
margin_bottom = 592.0
custom_fonts/normal_font = ExtResource( 4 )
bbcode_enabled = true
bbcode_text = " Dash: [(D)]"
text = " Dash: [(D)]"
__meta__ = {
"_edit_use_anchors_": false
}

[node name="LabelSlowTime" type="RichTextLabel" parent="Text/BindingTextReplacer"]
margin_left = 192.0
margin_top = 528.0
margin_right = 960.0
margin_bottom = 656.0
custom_fonts/normal_font = ExtResource( 4 )
bbcode_enabled = true
bbcode_text = " Slow down time: [(T)]"
text = " Slow down time: [(T)]"
__meta__ = {
"_edit_use_anchors_": false
}

[node name="LabelDashLand" type="RichTextLabel" parent="Text/BindingTextReplacer"]
margin_left = 1568.0
margin_top = 400.0
margin_right = 2400.0
margin_bottom = 736.0
custom_fonts/normal_font = ExtResource( 4 )
bbcode_enabled = true
bbcode_text = "[center]Tip: Press and hold [(D)]
just before landing
to continue dashing."
text = "Tip: Press and hold [(D)]
just before landing
to continue dashing."
__meta__ = {
"_edit_use_anchors_": false
}

[node name="LabelDashWallJump" type="RichTextLabel" parent="Text/BindingTextReplacer"]
margin_left = 2160.0
margin_top = -384.0
margin_right = 2510.0
margin_bottom = -34.0
custom_fonts/normal_font = ExtResource( 4 )
bbcode_enabled = true
bbcode_text = "[center]
Dash
+
Wall jump"
text = "
Dash
+
Wall jump"
__meta__ = {
"_edit_use_anchors_": false
}

[node name="Sawblades" type="Node2D" parent="."]
__meta__ = {
"_edit_lock_": true
}

[node name="Large1" parent="Sawblades" instance=ExtResource( 6 )]
position = Vector2( -512, 272 )

[node name="Group1" type="Node2D" parent="Sawblades"]

[node name="Medium1" parent="Sawblades/Group1" instance=ExtResource( 8 )]
position = Vector2( 1088, 464 )

[node name="Medium2" parent="Sawblades/Group1" instance=ExtResource( 8 )]
position = Vector2( 1264, 464 )

[node name="Medium3" parent="Sawblades/Group1" instance=ExtResource( 8 )]
position = Vector2( 1440, 464 )

[node name="Group2" type="Node2D" parent="Sawblades"]

[node name="Large1" parent="Sawblades/Group2" instance=ExtResource( 6 )]
position = Vector2( 2576, 528 )

[node name="Medium1" parent="Sawblades/Group2" instance=ExtResource( 8 )]
position = Vector2( 2784, 448 )

[node name="Large2" parent="Sawblades/Group2" instance=ExtResource( 6 )]
position = Vector2( 2992, 528 )

[node name="Group3" type="Node2D" parent="Sawblades"]

[node name="Large1" parent="Sawblades/Group3" instance=ExtResource( 6 )]
position = Vector2( 2480, -560 )

[node name="Large2" parent="Sawblades/Group3" instance=ExtResource( 6 )]
position = Vector2( 2192, -560 )

[node name="Group4" type="Node2D" parent="Sawblades"]

[node name="Small1" parent="Sawblades/Group4" instance=ExtResource( 9 )]
position = Vector2( 2832, -336 )

[node name="Small2" parent="Sawblades/Group4" instance=ExtResource( 9 )]
position = Vector2( 2928, -336 )

[node name="Small3" parent="Sawblades/Group4" instance=ExtResource( 9 )]
position = Vector2( 3024, -336 )

[node name="Small4" parent="Sawblades/Group4" instance=ExtResource( 9 )]
position = Vector2( 3120, -336 )

[node name="Group5" type="Node2D" parent="Sawblades"]

[node name="Large1" parent="Sawblades/Group5" instance=ExtResource( 6 )]
position = Vector2( 3712, -208 )

[node name="Large2" parent="Sawblades/Group5" instance=ExtResource( 6 )]
position = Vector2( 3712, -480 )

[node name="Large3" parent="Sawblades/Group5" instance=ExtResource( 6 )]
position = Vector2( 3712, -752 )

[node name="Goal" parent="." instance=ExtResource( 5 )]
position = Vector2( 3440, -464 )
