[gd_resource type="DynamicFont" load_steps=2 format=2]

[ext_resource path="res://Assets/Fonts/GNUTypewriter.otf" type="DynamicFontData" id=1]

[resource]
size = 32
outline_size = 4
outline_color = Color( 0, 0, 0, 1 )
use_filter = true
font_data = ExtResource( 1 )
